{ "_id" : { "$oid" : "5933a035ed4e0a23b0663f58" }, "paymentId" : "pay_7yjkXmNtcBBvB2", "path" : { "$oid" : "5916077164d1fe554c7ec934" }, "currency" : "INR", "amount" : 2, "product" : "course", "created" : { "$date" : "2017-06-04T05:52:53.935+0000" }, "user" : { "$oid" : "5916d5b4af9a835c4c9e6619" }, "__v" : 0 }
{ "_id" : { "$oid" : "5933a30a82b4b923e66f7d7b" }, "paymentId" : "pay_7yjqCdVmR9uF2M", "path" : { "$oid" : "5916077164d1fe554c7ec934" }, "currency" : "INR", "amount" : 2, "product" : "course", "created" : { "$date" : "2017-06-04T06:04:58.381+0000" }, "user" : { "$oid" : "5916d5b4af9a835c4c9e6619" }, "__v" : 0 }
{ "_id" : { "$oid" : "5933af02eda43d247505ee76" }, "paymentId" : "pay_7ykpyuzalDX2sx", "path" : { "$oid" : "5916077164d1fe554c7ec934" }, "currency" : "INR", "amount" : 2, "product" : "course", "created" : { "$date" : "2017-06-04T06:56:02.250+0000" }, "user" : { "$oid" : "5916d5b4af9a835c4c9e6619" }, "__v" : 0 }
{ "_id" : { "$oid" : "59340e9feda43d247505ee78" }, "paymentId" : "pay_7yrm4Y2bJ2jZwr", "path" : { "$oid" : "5916077164d1fe554c7ec934" }, "currency" : "INR", "amount" : 2, "product" : "course", "created" : { "$date" : "2017-06-04T13:43:59.370+0000" }, "user" : { "$oid" : "5916d5b4af9a835c4c9e6619" }, "__v" : 0 }
{ "_id" : { "$oid" : "593411c0cf9e4a274f9bf8b1" }, "paymentId" : "pay_7ys10t7V4e6BRZ", "path" : { "$oid" : "5916077164d1fe554c7ec934" }, "currency" : "INR", "amount" : 2, "product" : "course", "created" : { "$date" : "2017-06-04T13:57:20.068+0000" }, "user" : { "$oid" : "5916d5b4af9a835c4c9e6619" }, "__v" : 0 }
{ "_id" : { "$oid" : "59341567797695279a7f0dcd" }, "paymentId" : "pay_7ysGMxKtP40Gft", "path" : { "$oid" : "5916077164d1fe554c7ec934" }, "currency" : "INR", "amount" : 2, "product" : "course", "created" : { "$date" : "2017-06-04T14:12:55.305+0000" }, "user" : { "$oid" : "59198e8a78d6d47a4698066c" }, "__v" : 0 }
{ "_id" : { "$oid" : "59341d6d85f84b27c76674a8" }, "paymentId" : "pay_7ysramTQdp7qSf", "path" : { "$oid" : "5916077164d1fe554c7ec934" }, "currency" : "INR", "amount" : 2, "product" : "course", "created" : { "$date" : "2017-06-04T14:47:09.360+0000" }, "user" : { "$oid" : "5916d5b4af9a835c4c9e6619" }, "__v" : 0 }
{ "_id" : { "$oid" : "593425f4a42a7b283026adc6" }, "paymentId" : "pay_7ytRoKDNvFob9T", "path" : { "$oid" : "5916077164d1fe554c7ec934" }, "currency" : "INR", "amount" : 1, "product" : "course", "created" : { "$date" : "2017-06-04T15:23:32.383+0000" }, "discountCode" : "PROMOTEST", "user" : { "$oid" : "591550484539614f629ab286" }, "__v" : 0 }
{ "_id" : { "$oid" : "593448cc5033542ab6738f50" }, "path" : { "$oid" : "5919c1d0bddd44041709ece4" }, "user" : { "$oid" : "59198e8a78d6d47a46980465" }, "amount" : 50, "paymentId" : "pay_6WxFlAQFnO3pYV", "product" : "mentor", "currency" : "INR", "__v" : 0 }
{ "_id" : { "$oid" : "59778c381e0b521f65ecc77b" }, "paymentId" : "pay_8J7lOB301nANKb", "path" : { "$oid" : "59705acdcd555b4e3bb569cf" }, "currency" : "INR", "amount" : 60, "product" : "course", "created" : { "$date" : "2017-07-25T18:21:44.671+0000" }, "user" : { "$oid" : "5975ee51e18d8f09c9aee65d" }, "__v" : 0 }
{ "_id" : { "$oid" : "5978d8bd19f23d2a1c89bf37" }, "paymentId" : "pay_8JVvwKxl0Cn86y", "path" : { "$oid" : "59705acdcd555b4e3bb569cf" }, "currency" : "INR", "amount" : 60, "product" : "course", "created" : { "$date" : "2017-07-26T18:00:29.736+0000" }, "user" : { "$oid" : "5975dbd988564508e92cdf57" }, "__v" : 0 }
{ "_id" : { "$oid" : "59b3956b6562b853ca9876ae" }, "paymentId" : "pay_8b90i3aX1GbPUV", "path" : { "$oid" : "598c7fe1b6fa6f560a03383a" }, "currency" : "INR", "amount" : 80, "product" : "course", "created" : { "$date" : "2017-09-09T07:16:59.841+0000" }, "user" : { "$oid" : "59b182acea314f43450ac158" }, "__v" : 0 }
{ "_id" : { "$oid" : "59b562a84fd9bb552aacfe7e" }, "paymentId" : "pay_8bgXTqJfoN38zo", "path" : { "$oid" : "598c7fe1b6fa6f560a03383a" }, "currency" : "INR", "amount" : 80, "product" : "course", "created" : { "$date" : "2017-09-10T16:04:56.042+0000" }, "user" : { "$oid" : "59b18393ea314f43450ac159" }, "__v" : 0 }
{ "_id" : { "$oid" : "59bd42f7cd1a8a1e645289a1" }, "paymentId" : "pay_8e3741low4f6BY", "path" : { "$oid" : "598c7fe1b6fa6f560a03383a" }, "currency" : "INR", "amount" : 50, "product" : "course", "created" : { "$date" : "2017-09-16T15:27:51.382+0000" }, "user" : { "$oid" : "593e17a804c35e6566644866" }, "__v" : 0 }
{ "_id" : { "$oid" : "59be64948cbf30325fdf415f" }, "paymentId" : "pay_8eOAHfOwK9WKX0", "path" : { "$oid" : "598c7fe1b6fa6f560a03383a" }, "currency" : "INR", "amount" : 50, "product" : "course", "created" : { "$date" : "2017-09-17T12:03:32.793+0000" }, "user" : { "$oid" : "59ba7604a2d7f0115bdbe17f" }, "__v" : 0 }
{ "_id" : { "$oid" : "59c922bb004ed63bb9a9e3ba" }, "paymentId" : "pay_8hc5NJJBUH1Eek", "path" : { "$oid" : "598c7927b6fa6f560a033834" }, "currency" : "INR", "amount" : 300, "product" : "course", "created" : { "$date" : "2017-09-25T15:37:31.136+0000" }, "discountCode" : "DCE", "user" : { "$oid" : "59c92242004ed63bb9a9e3b3" }, "__v" : 0 }
{ "_id" : { "$oid" : "59c924663446883c24c648da" }, "paymentId" : "pay_8hcCjv34g4yNy7", "path" : { "$oid" : "598c7927b6fa6f560a033834" }, "currency" : "INR", "amount" : 300, "product" : "course", "created" : { "$date" : "2017-09-25T15:44:38.584+0000" }, "discountCode" : "DCE", "user" : { "$oid" : "59c922fced2ec13c17925fbd" }, "__v" : 0 }
{ "_id" : { "$oid" : "59c924cbb86e1d3c32896c17" }, "paymentId" : "pay_8hcEfV7NgjRCQI", "path" : { "$oid" : "598c7927b6fa6f560a033834" }, "currency" : "INR", "amount" : 300, "product" : "course", "created" : { "$date" : "2017-09-25T15:46:19.343+0000" }, "discountCode" : "DCE", "user" : { "$oid" : "59c923563446883c24c648d0" }, "__v" : 0 }
{ "_id" : { "$oid" : "59c924cfb0b9f43c3fc2a117" }, "paymentId" : "pay_8hcEgZw621Mj0z", "path" : { "$oid" : "598c7927b6fa6f560a033834" }, "currency" : "INR", "amount" : 300, "product" : "course", "created" : { "$date" : "2017-09-25T15:46:23.388+0000" }, "discountCode" : "DCE", "user" : { "$oid" : "59c922c7ed2ec13c17925fb9" }, "__v" : 0 }
{ "_id" : { "$oid" : "59c926c0b817b43c496a3e81" }, "paymentId" : "pay_8hcNVtMS1adqZU", "path" : { "$oid" : "598c7927b6fa6f560a033834" }, "currency" : "INR", "amount" : 500, "product" : "course", "created" : { "$date" : "2017-09-25T15:54:40.903+0000" }, "user" : { "$oid" : "59c9232b3446883c24c648ce" }, "__v" : 0 }
{ "_id" : { "$oid" : "59c9273c7461f43c73b9bc84" }, "paymentId" : "pay_8hcPTKRzz9AOod", "path" : { "$oid" : "598c7927b6fa6f560a033834" }, "currency" : "INR", "amount" : 300, "product" : "course", "created" : { "$date" : "2017-09-25T15:56:44.532+0000" }, "discountCode" : "DCE", "user" : { "$oid" : "59c922d3ed2ec13c17925fbb" }, "__v" : 0 }
{ "_id" : { "$oid" : "59c9276aef41803c8098b3aa" }, "paymentId" : "pay_8hcQS0q6FfPmEV", "path" : { "$oid" : "598c7927b6fa6f560a033834" }, "currency" : "INR", "amount" : 300, "product" : "course", "created" : { "$date" : "2017-09-25T15:57:30.196+0000" }, "discountCode" : "DCE", "user" : { "$oid" : "59c923a33446883c24c648d3" }, "__v" : 0 }
{ "_id" : { "$oid" : "59c92800ffa4b03ca6e616ff" }, "paymentId" : "pay_8hcScvyzBJMHlx", "path" : { "$oid" : "598c7927b6fa6f560a033834" }, "currency" : "INR", "amount" : 300, "product" : "course", "created" : { "$date" : "2017-09-25T15:59:46.821+0000" }, "discountCode" : "DCE", "user" : { "$oid" : "59c9259cb817b43c496a3e75" }, "__v" : 0 }
{ "_id" : { "$oid" : "59c929e54dda203cd13cacaa" }, "paymentId" : "pay_8hcbaXt7JF7HNd", "path" : { "$oid" : "598c7927b6fa6f560a033834" }, "currency" : "INR", "amount" : 300, "product" : "course", "created" : { "$date" : "2017-09-25T16:08:05.826+0000" }, "discountCode" : "DCE", "user" : { "$oid" : "59c922b8004ed63bb9a9e3b9" }, "__v" : 0 }
{ "_id" : { "$oid" : "59c929eb8f97e53ce011af1b" }, "paymentId" : "pay_8hcbXZefN8yzGC", "path" : { "$oid" : "598c7927b6fa6f560a033834" }, "currency" : "INR", "amount" : 300, "product" : "course", "created" : { "$date" : "2017-09-25T16:08:11.154+0000" }, "discountCode" : "DCE", "user" : { "$oid" : "59c9224f004ed63bb9a9e3b4" }, "__v" : 0 }
{ "_id" : { "$oid" : "59c92a5d44b2353cea3d0acd" }, "paymentId" : "pay_8hcdl8VeUeBnj5", "path" : { "$oid" : "598c7927b6fa6f560a033834" }, "currency" : "INR", "amount" : 300, "product" : "course", "created" : { "$date" : "2017-09-25T16:10:05.853+0000" }, "discountCode" : "DCE", "user" : { "$oid" : "59c927cbffa4b03ca6e616fe" }, "__v" : 0 }
{ "_id" : { "$oid" : "59c92ac91eb2183cf722b43d" }, "paymentId" : "pay_8hcfkVZwZlGxtK", "path" : { "$oid" : "598c7927b6fa6f560a033834" }, "currency" : "INR", "amount" : 300, "product" : "course", "created" : { "$date" : "2017-09-25T16:11:53.221+0000" }, "discountCode" : "DCE", "user" : { "$oid" : "59c928a2fe3cf93cb8c1ad92" }, "__v" : 0 }
{ "_id" : { "$oid" : "59c92af04bc5043d07a46a1b" }, "paymentId" : "pay_8hcgMSwgoAvCXY", "path" : { "$oid" : "598c7927b6fa6f560a033834" }, "currency" : "INR", "amount" : 300, "product" : "course", "created" : { "$date" : "2017-09-25T16:12:32.621+0000" }, "discountCode" : "DCE", "user" : { "$oid" : "59c9298a4dda203cd13caca5" }, "__v" : 0 }
{ "_id" : { "$oid" : "59c92af5e9c3493d14daf20c" }, "paymentId" : "pay_8hcgMdVzZ8Vs4Y", "path" : { "$oid" : "598c7927b6fa6f560a033834" }, "currency" : "INR", "amount" : 300, "product" : "course", "created" : { "$date" : "2017-09-25T16:12:37.613+0000" }, "discountCode" : "DCE", "user" : { "$oid" : "59c9247cb86e1d3c32896c15" }, "__v" : 0 }
{ "_id" : { "$oid" : "59c92b72f50c023d1ed90fd9" }, "paymentId" : "pay_8hciXW4vhqZmkV", "path" : { "$oid" : "598c7927b6fa6f560a033834" }, "currency" : "INR", "amount" : 500, "product" : "course", "created" : { "$date" : "2017-09-25T16:14:42.421+0000" }, "user" : { "$oid" : "59c921e0004ed63bb9a9e3b2" }, "__v" : 0 }
{ "_id" : { "$oid" : "59c92cd0c942263d489b9523" }, "paymentId" : "pay_8hcok3iGkSA7cy", "path" : { "$oid" : "598c7927b6fa6f560a033834" }, "currency" : "INR", "amount" : 300, "product" : "course", "created" : { "$date" : "2017-09-25T16:20:32.717+0000" }, "discountCode" : "DCE", "user" : { "$oid" : "59c92a7f1eb2183cf722b438" }, "__v" : 0 }
{ "_id" : { "$oid" : "59c92ce043e32a3d5670588a" }, "paymentId" : "pay_8hcp4wgvRvj4GQ", "path" : { "$oid" : "598c7927b6fa6f560a033834" }, "currency" : "INR", "amount" : 300, "product" : "course", "created" : { "$date" : "2017-09-25T16:20:48.347+0000" }, "discountCode" : "DCE", "user" : { "$oid" : "59c92a4c44b2353cea3d0acb" }, "__v" : 0 }
{ "_id" : { "$oid" : "59c92d40d4f48f3d647e3888" }, "paymentId" : "pay_8hcqUAxMDrEPZe", "path" : { "$oid" : "598c7927b6fa6f560a033834" }, "currency" : "INR", "amount" : 300, "product" : "course", "created" : { "$date" : "2017-09-25T16:22:15.537+0000" }, "discountCode" : "DCE", "user" : { "$oid" : "59c92b34f50c023d1ed90fd7" }, "__v" : 0 }
{ "_id" : { "$oid" : "59c92d40d4f48f3d647e3889" }, "paymentId" : "pay_8hcqfy9qI0pQh9", "path" : { "$oid" : "598c7927b6fa6f560a033834" }, "currency" : "INR", "amount" : 300, "product" : "course", "created" : { "$date" : "2017-09-25T16:22:18.657+0000" }, "discountCode" : "DCE", "user" : { "$oid" : "59c92c7ec942263d489b9521" }, "__v" : 0 }
{ "_id" : { "$oid" : "59c92d84f265123d74080b01" }, "paymentId" : "pay_8hcrvbCNREliAM", "path" : { "$oid" : "598c7927b6fa6f560a033834" }, "currency" : "INR", "amount" : 300, "product" : "course", "created" : { "$date" : "2017-09-25T16:23:32.681+0000" }, "discountCode" : "DCE", "user" : { "$oid" : "59c92c0ec942263d489b951d" }, "__v" : 0 }
{ "_id" : { "$oid" : "59c92e35ef86833d7faa51c0" }, "paymentId" : "pay_8hctTvomhbUms5", "path" : { "$oid" : "598c7927b6fa6f560a033834" }, "currency" : "INR", "amount" : 300, "product" : "course", "created" : { "$date" : "2017-09-25T16:25:51.610+0000" }, "discountCode" : "DCE", "user" : { "$oid" : "59c92476b86e1d3c32896c14" }, "__v" : 0 }
{ "_id" : { "$oid" : "59c92e79ef86833d7faa51c1" }, "paymentId" : "pay_8hcvlowdgAzPug", "path" : { "$oid" : "598c7927b6fa6f560a033834" }, "currency" : "INR", "amount" : 300, "product" : "course", "created" : { "$date" : "2017-09-25T16:27:28.125+0000" }, "discountCode" : "DCE", "user" : { "$oid" : "59c925a5b817b43c496a3e77" }, "__v" : 0 }
{ "_id" : { "$oid" : "59c92eddef86833d7faa51c6" }, "paymentId" : "pay_8hcy9jfzKNFMZI", "path" : { "$oid" : "598c7927b6fa6f560a033834" }, "currency" : "INR", "amount" : 300, "product" : "course", "created" : { "$date" : "2017-09-25T16:29:17.270+0000" }, "discountCode" : "DCE", "user" : { "$oid" : "59c92792a3aa893c9a093064" }, "__v" : 0 }
{ "_id" : { "$oid" : "59c92f00bba3c93d923390e5" }, "paymentId" : "pay_8hcyXJqOUARTA2", "path" : { "$oid" : "598c7927b6fa6f560a033834" }, "currency" : "INR", "amount" : 300, "product" : "course", "created" : { "$date" : "2017-09-25T16:29:52.104+0000" }, "discountCode" : "DCE", "user" : { "$oid" : "59c925a5b817b43c496a3e77" }, "__v" : 0 }
{ "_id" : { "$oid" : "59c92f0a24a7c23da086b3e5" }, "paymentId" : "pay_8hcypMVIWuUevy", "path" : { "$oid" : "598c7927b6fa6f560a033834" }, "currency" : "INR", "amount" : 300, "product" : "course", "created" : { "$date" : "2017-09-25T16:30:02.591+0000" }, "discountCode" : "DCE", "user" : { "$oid" : "59c92aa11eb2183cf722b439" }, "__v" : 0 }
{ "_id" : { "$oid" : "59c92f385c79fc3dacd2f50d" }, "paymentId" : "pay_8hczffA67gxPUr", "path" : { "$oid" : "598c7927b6fa6f560a033834" }, "currency" : "INR", "amount" : 300, "product" : "course", "created" : { "$date" : "2017-09-25T16:30:48.902+0000" }, "discountCode" : "DCE", "user" : { "$oid" : "59c924e1b817b43c496a3e6e" }, "__v" : 0 }
{ "_id" : { "$oid" : "59c92f61b0bf143dba4a65e7" }, "paymentId" : "pay_8hd0HD46QQkBuT", "path" : { "$oid" : "598c7927b6fa6f560a033834" }, "currency" : "INR", "amount" : 300, "product" : "course", "created" : { "$date" : "2017-09-25T16:31:29.267+0000" }, "discountCode" : "DCE", "user" : { "$oid" : "59c92487b86e1d3c32896c16" }, "__v" : 0 }
{ "_id" : { "$oid" : "59c92fb790dbfe3dc8455dff" }, "paymentId" : "pay_8hd19P97TJGEKU", "path" : { "$oid" : "598c7927b6fa6f560a033834" }, "currency" : "INR", "amount" : 300, "product" : "course", "created" : { "$date" : "2017-09-25T16:32:39.862+0000" }, "discountCode" : "DCE", "user" : { "$oid" : "59c92680b817b43c496a3e80" }, "__v" : 0 }
{ "_id" : { "$oid" : "59c930ee90dbfe3dc8455e09" }, "paymentId" : "pay_8hd7DROHSQliR4", "path" : { "$oid" : "598c7927b6fa6f560a033834" }, "currency" : "INR", "amount" : 300, "product" : "course", "created" : { "$date" : "2017-09-25T16:38:06.394+0000" }, "discountCode" : "DCE", "user" : { "$oid" : "59c92e7fef86833d7faa51c3" }, "__v" : 0 }
{ "_id" : { "$oid" : "59c9316843fa733dded594da" }, "paymentId" : "pay_8hd9Xs88djHhaE", "path" : { "$oid" : "598c7927b6fa6f560a033834" }, "currency" : "INR", "amount" : 300, "product" : "course", "created" : { "$date" : "2017-09-25T16:40:08.990+0000" }, "discountCode" : "DCE", "user" : { "$oid" : "59c92ad64bc5043d07a46a18" }, "__v" : 0 }
{ "_id" : { "$oid" : "59c93197ac6aca3e0854ad65" }, "paymentId" : "pay_8hdAQJr6r5thRL", "path" : { "$oid" : "598c7927b6fa6f560a033834" }, "currency" : "INR", "amount" : 300, "product" : "course", "created" : { "$date" : "2017-09-25T16:40:55.592+0000" }, "discountCode" : "DCE", "user" : { "$oid" : "59c9263bb817b43c496a3e7b" }, "__v" : 0 }
{ "_id" : { "$oid" : "59c931c159c2283e15b59363" }, "paymentId" : "pay_8hdB166I31981y", "path" : { "$oid" : "598c7927b6fa6f560a033834" }, "currency" : "INR", "amount" : 300, "product" : "course", "created" : { "$date" : "2017-09-25T16:41:37.208+0000" }, "discountCode" : "DCE", "user" : { "$oid" : "59c92e7cef86833d7faa51c2" }, "__v" : 0 }
{ "_id" : { "$oid" : "59c933051e35783e3c7e2edd" }, "paymentId" : "pay_8hdGceqL4vTFvs", "path" : { "$oid" : "59c932843c88db3e2176bfd1" }, "currency" : "INR", "amount" : 1, "product" : "course", "created" : { "$date" : "2017-09-25T16:47:01.887+0000" }, "user" : { "$oid" : "594283f2f5c4000f4260d120" }, "__v" : 0 }
{ "_id" : { "$oid" : "59c9332485c38e3e49044b41" }, "paymentId" : "pay_8hdGzvabFcy4F8", "path" : { "$oid" : "598c7927b6fa6f560a033834" }, "currency" : "INR", "amount" : 300, "product" : "course", "created" : { "$date" : "2017-09-25T16:47:32.906+0000" }, "discountCode" : "DCE", "user" : { "$oid" : "59c931c83c88db3e2176bfce" }, "__v" : 0 }
{ "_id" : { "$oid" : "59c9336ade53553e556ace85" }, "paymentId" : "pay_8hdIHfgWlECi0g", "path" : { "$oid" : "598c7927b6fa6f560a033834" }, "currency" : "INR", "amount" : 300, "product" : "course", "created" : { "$date" : "2017-09-25T16:48:42.252+0000" }, "discountCode" : "DCE", "user" : { "$oid" : "59c9304590dbfe3dc8455e03" }, "__v" : 0 }
{ "_id" : { "$oid" : "59c93400d439443e62f87377" }, "paymentId" : "pay_8hdLGm6mAaR5Lt", "path" : { "$oid" : "598c7927b6fa6f560a033834" }, "currency" : "INR", "amount" : 300, "product" : "course", "created" : { "$date" : "2017-09-25T16:51:12.401+0000" }, "discountCode" : "DCE", "user" : { "$oid" : "59c932d8ec4a913e2ecf1cd8" }, "__v" : 0 }
{ "_id" : { "$oid" : "59c9341d6926803e70c73722" }, "paymentId" : "pay_8hdLQZNBRhoY8S", "path" : { "$oid" : "598c7927b6fa6f560a033834" }, "currency" : "INR", "amount" : 300, "product" : "course", "created" : { "$date" : "2017-09-25T16:51:41.157+0000" }, "discountCode" : "DCE", "user" : { "$oid" : "591550484539614f629ab286" }, "__v" : 0 }
{ "_id" : { "$oid" : "59c9342fd549b93e7ed06a4f" }, "paymentId" : "pay_8hdM2whBS7v0fp", "path" : { "$oid" : "598c7927b6fa6f560a033834" }, "currency" : "INR", "amount" : 300, "product" : "course", "created" : { "$date" : "2017-09-25T16:51:59.294+0000" }, "discountCode" : "DCE", "user" : { "$oid" : "59c93383d439443e62f87375" }, "__v" : 0 }
{ "_id" : { "$oid" : "59c9345d5eb02e3e8be6270e" }, "paymentId" : "pay_8hdMr4nhmpPTph", "path" : { "$oid" : "598c7927b6fa6f560a033834" }, "currency" : "INR", "amount" : 300, "product" : "course", "created" : { "$date" : "2017-09-25T16:52:45.074+0000" }, "discountCode" : "DCE", "user" : { "$oid" : "59c9263ab817b43c496a3e7a" }, "__v" : 0 }
{ "_id" : { "$oid" : "59c93478b541a83e98d56985" }, "paymentId" : "pay_8hdNGjEbhLQBkI", "path" : { "$oid" : "598c7927b6fa6f560a033834" }, "currency" : "INR", "amount" : 300, "product" : "course", "created" : { "$date" : "2017-09-25T16:53:12.620+0000" }, "discountCode" : "DCE", "user" : { "$oid" : "59c93382d439443e62f87374" }, "__v" : 0 }
{ "_id" : { "$oid" : "59c93484f4e7e83ea49f259c" }, "paymentId" : "pay_8hdNT7Id4uwoki", "path" : { "$oid" : "598c7927b6fa6f560a033834" }, "currency" : "INR", "amount" : 300, "product" : "course", "created" : { "$date" : "2017-09-25T16:53:24.639+0000" }, "discountCode" : "DCE", "user" : { "$oid" : "59c9314e43fa733dded594d9" }, "__v" : 0 }
{ "_id" : { "$oid" : "59c935464572273eaf35ea33" }, "paymentId" : "pay_8hdQq2UU2uJDiz", "path" : { "$oid" : "598c7927b6fa6f560a033834" }, "currency" : "INR", "amount" : 300, "product" : "course", "created" : { "$date" : "2017-09-25T16:56:38.095+0000" }, "discountCode" : "DCE", "user" : { "$oid" : "59c92aa61eb2183cf722b43b" }, "__v" : 0 }
{ "_id" : { "$oid" : "59c9357346179a3ec17e8db7" }, "paymentId" : "pay_8hdRgHtTSkPKvJ", "path" : { "$oid" : "598c7927b6fa6f560a033834" }, "currency" : "INR", "amount" : 300, "product" : "course", "created" : { "$date" : "2017-09-25T16:57:23.036+0000" }, "discountCode" : "DCE", "user" : { "$oid" : "59c92b63f50c023d1ed90fd8" }, "__v" : 0 }
{ "_id" : { "$oid" : "59c935d69fc8af3ece6e1232" }, "paymentId" : "pay_8hdTMpEGouacd9", "path" : { "$oid" : "598c7927b6fa6f560a033834" }, "currency" : "INR", "amount" : 300, "product" : "course", "created" : { "$date" : "2017-09-25T16:59:02.408+0000" }, "discountCode" : "DCE", "user" : { "$oid" : "59c92792a3aa893c9a093063" }, "__v" : 0 }
{ "_id" : { "$oid" : "59c936f29b06333ede4eeb82" }, "paymentId" : "pay_8hdYads1wVgttF", "path" : { "$oid" : "598c7927b6fa6f560a033834" }, "currency" : "INR", "amount" : 300, "product" : "course", "created" : { "$date" : "2017-09-25T17:03:46.752+0000" }, "discountCode" : "DCE", "user" : { "$oid" : "59c934f44572273eaf35ea30" }, "__v" : 0 }
{ "_id" : { "$oid" : "59c9380fd3050a3f0b33e30c" }, "paymentId" : "pay_8hddbA0m1XSaFz", "path" : { "$oid" : "598c7927b6fa6f560a033834" }, "currency" : "INR", "amount" : 300, "product" : "course", "created" : { "$date" : "2017-09-25T17:08:31.763+0000" }, "discountCode" : "DCE", "user" : { "$oid" : "59c92fba90dbfe3dc8455e00" }, "__v" : 0 }
{ "_id" : { "$oid" : "59c938882cc5ab3f25311c4a" }, "paymentId" : "pay_8hdfQlV5eoTKSH", "path" : { "$oid" : "598c7927b6fa6f560a033834" }, "currency" : "INR", "amount" : 300, "product" : "course", "created" : { "$date" : "2017-09-25T17:10:32.093+0000" }, "discountCode" : "DCE", "user" : { "$oid" : "59c935a89fc8af3ece6e1231" }, "__v" : 0 }
{ "_id" : { "$oid" : "59c938bfdcafb13f42d3bc36" }, "paymentId" : "pay_8hdgbgXEPBfEtv", "path" : { "$oid" : "598c7927b6fa6f560a033834" }, "currency" : "INR", "amount" : 300, "product" : "course", "created" : { "$date" : "2017-09-25T17:11:27.073+0000" }, "discountCode" : "DCE", "user" : { "$oid" : "59c9373452787c3efc70353d" }, "__v" : 0 }
{ "_id" : { "$oid" : "59c938d9304ca93f52bba251" }, "paymentId" : "pay_8hdh20cPtPwVcO", "path" : { "$oid" : "598c7927b6fa6f560a033834" }, "currency" : "INR", "amount" : 300, "product" : "course", "created" : { "$date" : "2017-09-25T17:11:53.974+0000" }, "discountCode" : "DCE", "user" : { "$oid" : "59c936099b06333ede4eeb7b" }, "__v" : 0 }
{ "_id" : { "$oid" : "59c93a254318233f6f94880f" }, "paymentId" : "pay_8hdmrtaWPp1jyw", "path" : { "$oid" : "598c7927b6fa6f560a033834" }, "currency" : "INR", "amount" : 300, "product" : "course", "created" : { "$date" : "2017-09-25T17:17:25.323+0000" }, "discountCode" : "DCE", "user" : { "$oid" : "59c9384c2cc5ab3f25311c49" }, "__v" : 0 }
{ "_id" : { "$oid" : "59c93b003821383f7e3b1190" }, "paymentId" : "pay_8hdqpUgXptxAiH", "path" : { "$oid" : "598c7927b6fa6f560a033834" }, "currency" : "INR", "amount" : 300, "product" : "course", "created" : { "$date" : "2017-09-25T17:21:04.684+0000" }, "discountCode" : "DCE", "user" : { "$oid" : "59c93179ac6aca3e0854ad64" }, "__v" : 0 }
{ "_id" : { "$oid" : "59c93bd42d67033f90bd6d5d" }, "paymentId" : "pay_8hduZWn26SfcOg", "path" : { "$oid" : "598c7927b6fa6f560a033834" }, "currency" : "INR", "amount" : 300, "product" : "course", "created" : { "$date" : "2017-09-25T17:24:36.837+0000" }, "discountCode" : "DCE", "user" : { "$oid" : "59c92744ef41803c8098b3a9" }, "__v" : 0 }
{ "_id" : { "$oid" : "59c93cd942a87a3fa3b562d2" }, "paymentId" : "pay_8hdz6AdutzD9V6", "path" : { "$oid" : "598c7927b6fa6f560a033834" }, "currency" : "INR", "amount" : 300, "product" : "course", "created" : { "$date" : "2017-09-25T17:28:57.956+0000" }, "discountCode" : "DCE", "user" : { "$oid" : "59c93c2142a87a3fa3b562d0" }, "__v" : 0 }
{ "_id" : { "$oid" : "59c93d29db70bf3fb2fc5fce" }, "paymentId" : "pay_8he0ZQgilrjlZ0", "path" : { "$oid" : "598c7927b6fa6f560a033834" }, "currency" : "INR", "amount" : 300, "product" : "course", "created" : { "$date" : "2017-09-25T17:30:17.972+0000" }, "discountCode" : "DCE", "user" : { "$oid" : "59c93b182d67033f90bd6d59" }, "__v" : 0 }
{ "_id" : { "$oid" : "59c93d74ce7ffc3fbf7eba06" }, "paymentId" : "pay_8he1lh6ksCT6cY", "path" : { "$oid" : "598c7927b6fa6f560a033834" }, "currency" : "INR", "amount" : 300, "product" : "course", "created" : { "$date" : "2017-09-25T17:31:32.217+0000" }, "discountCode" : "DCE", "user" : { "$oid" : "59c93af63821383f7e3b118f" }, "__v" : 0 }
{ "_id" : { "$oid" : "59c93ddd06460e3fe8edf502" }, "paymentId" : "pay_8he3jP5Nl5Mbis", "path" : { "$oid" : "598c7927b6fa6f560a033834" }, "currency" : "INR", "amount" : 300, "product" : "course", "created" : { "$date" : "2017-09-25T17:33:17.293+0000" }, "discountCode" : "DCE", "user" : { "$oid" : "59c936a39b06333ede4eeb81" }, "__v" : 0 }
{ "_id" : { "$oid" : "59c93e7de329e73ff7fae400" }, "paymentId" : "pay_8he6NHQ8k3uITC", "path" : { "$oid" : "598c7927b6fa6f560a033834" }, "currency" : "INR", "amount" : 300, "product" : "course", "created" : { "$date" : "2017-09-25T17:35:57.533+0000" }, "discountCode" : "DCE", "user" : { "$oid" : "59c93d8f06460e3fe8edf501" }, "__v" : 0 }
{ "_id" : { "$oid" : "59c94042914bb1400607d96c" }, "paymentId" : "pay_8heEZ80e5TQ3Ff", "path" : { "$oid" : "598c7927b6fa6f560a033834" }, "currency" : "INR", "amount" : 300, "product" : "course", "created" : { "$date" : "2017-09-25T17:43:30.965+0000" }, "discountCode" : "DCE", "user" : { "$oid" : "59c93df4e329e73ff7fae3ff" }, "__v" : 0 }
{ "_id" : { "$oid" : "59c9409be29cb640193c988e" }, "paymentId" : "pay_8heG7G9ZlIh8Ya", "path" : { "$oid" : "598c7927b6fa6f560a033834" }, "currency" : "INR", "amount" : 300, "product" : "course", "created" : { "$date" : "2017-09-25T17:44:59.211+0000" }, "discountCode" : "DCE", "user" : { "$oid" : "59c93c4f42a87a3fa3b562d1" }, "__v" : 0 }
{ "_id" : { "$oid" : "59c940d515fc2c402872f2f2" }, "paymentId" : "pay_8heGtqRhualg8J", "path" : { "$oid" : "598c7927b6fa6f560a033834" }, "currency" : "INR", "amount" : 300, "product" : "course", "created" : { "$date" : "2017-09-25T17:45:57.984+0000" }, "discountCode" : "DCE", "user" : { "$oid" : "59c93f9d914bb1400607d96a" }, "__v" : 0 }
{ "_id" : { "$oid" : "59c940de707e724035e55919" }, "paymentId" : "pay_8heH6OkOh281ru", "path" : { "$oid" : "598c7927b6fa6f560a033834" }, "currency" : "INR", "amount" : 300, "product" : "course", "created" : { "$date" : "2017-09-25T17:46:06.561+0000" }, "discountCode" : "DCE", "user" : { "$oid" : "59c93f93914bb1400607d969" }, "__v" : 0 }
{ "_id" : { "$oid" : "59c942851c92fb40405a7336" }, "paymentId" : "pay_8heOFuNJvCw4M3", "path" : { "$oid" : "598c7927b6fa6f560a033834" }, "currency" : "INR", "amount" : 300, "product" : "course", "created" : { "$date" : "2017-09-25T17:53:09.494+0000" }, "discountCode" : "DCE", "user" : { "$oid" : "59c92b34f50c023d1ed90fd7" }, "__v" : 0 }
{ "_id" : { "$oid" : "59c9429910bd1e40540e60a2" }, "paymentId" : "pay_8heP1hmmlT0FGi", "path" : { "$oid" : "598c7927b6fa6f560a033834" }, "currency" : "INR", "amount" : 300, "product" : "course", "created" : { "$date" : "2017-09-25T17:53:29.856+0000" }, "discountCode" : "DCE", "user" : { "$oid" : "59c941991c92fb40405a7334" }, "__v" : 0 }
{ "_id" : { "$oid" : "59c9434871291a4060d6f962" }, "paymentId" : "pay_8heS2weWOZfkg6", "path" : { "$oid" : "598c7927b6fa6f560a033834" }, "currency" : "INR", "amount" : 300, "product" : "course", "created" : { "$date" : "2017-09-25T17:56:24.812+0000" }, "discountCode" : "DCE", "user" : { "$oid" : "59c942181c92fb40405a7335" }, "__v" : 0 }
{ "_id" : { "$oid" : "59c946209a9364406daa33f5" }, "paymentId" : "pay_8heefBzY0t71oe", "path" : { "$oid" : "598c7927b6fa6f560a033834" }, "currency" : "INR", "amount" : 300, "product" : "course", "created" : { "$date" : "2017-09-25T18:08:32.472+0000" }, "discountCode" : "DCE", "user" : { "$oid" : "59c944a39a9364406daa33ef" }, "__v" : 0 }
{ "_id" : { "$oid" : "59c94be92d893d40af1f65b2" }, "paymentId" : "pay_8hf4edKfuVSZ1t", "path" : { "$oid" : "59c9340c6926803e70c7371f" }, "currency" : "INR", "amount" : 2, "product" : "course", "created" : { "$date" : "2017-09-25T18:33:13.957+0000" }, "user" : { "$oid" : "594283f2f5c4000f4260d120" }, "__v" : 0 }
{ "_id" : { "$oid" : "59c95e5fc845864190f284de" }, "paymentId" : "pay_8hgPr7yoA0BQF7", "path" : { "$oid" : "598c7927b6fa6f560a033834" }, "currency" : "INR", "amount" : 300, "product" : "course", "created" : { "$date" : "2017-09-25T19:51:59.748+0000" }, "discountCode" : "DCE", "user" : { "$oid" : "59c946199a9364406daa33f4" }, "__v" : 0 }
{ "_id" : { "$oid" : "59c98afd90c4ce4238dae5a6" }, "paymentId" : "pay_8hjfIrV0I8wX5E", "path" : { "$oid" : "5919c1cebddd44041709ec1d" }, "currency" : "INR", "amount" : 250, "product" : "course", "created" : { "$date" : "2017-09-25T23:02:21.869+0000" }, "user" : { "$oid" : "59c92792a3aa893c9a093063" }, "__v" : 0 }
{ "_id" : { "$oid" : "59c98d9d0f531943a64a341e" }, "paymentId" : "pay_8hjrABJX3zi4GX", "path" : { "$oid" : "5919c1cfbddd44041709ec7a" }, "currency" : "INR", "amount" : 250, "product" : "course", "created" : { "$date" : "2017-09-25T23:13:33.406+0000" }, "user" : { "$oid" : "59c92792a3aa893c9a093063" }, "__v" : 0 }
{ "_id" : { "$oid" : "59c98e4f86f5fc43cf286360" }, "paymentId" : "pay_8hjuKovTiV7EsO", "path" : { "$oid" : "5919c1d0bddd44041709ecce" }, "currency" : "INR", "amount" : 250, "product" : "course", "created" : { "$date" : "2017-09-25T23:16:31.346+0000" }, "user" : { "$oid" : "59c92792a3aa893c9a093063" }, "__v" : 0 }
{ "_id" : { "$oid" : "59c991513c21bf43dc212b8f" }, "paymentId" : "pay_8hk7tPJVuQsOre", "path" : { "$oid" : "59c95937f0c6ea4182daa129" }, "currency" : "INR", "amount" : 500, "product" : "course", "created" : { "$date" : "2017-09-25T23:29:21.913+0000" }, "user" : { "$oid" : "59c92792a3aa893c9a093063" }, "__v" : 0 }
{ "_id" : { "$oid" : "59c99216567d0643ed7a5495" }, "paymentId" : "pay_8hkBMSZGdfbskg", "path" : { "$oid" : "5919c1cfbddd44041709ec8c" }, "currency" : "INR", "amount" : 250, "product" : "course", "created" : { "$date" : "2017-09-25T23:32:38.466+0000" }, "user" : { "$oid" : "59c92792a3aa893c9a093063" }, "__v" : 0 }
{ "_id" : { "$oid" : "59c9a55d543b2144166bb97a" }, "paymentId" : "pay_8hlZ3C3oXIkkMc", "path" : { "$oid" : "59c95937f0c6ea4182daa129" }, "currency" : "INR", "amount" : 300, "product" : "course", "created" : { "$date" : "2017-09-26T00:54:53.719+0000" }, "discountCode" : "DCE", "user" : { "$oid" : "59c92556b817b43c496a3e73" }, "__v" : 0 }
{ "_id" : { "$oid" : "59c9a89dd8dde04498a5d3e3" }, "paymentId" : "pay_8hlotoR60zJHQr", "path" : { "$oid" : "5919c1d0bddd44041709ecda" }, "currency" : "INR", "amount" : 250, "product" : "course", "created" : { "$date" : "2017-09-26T01:08:45.844+0000" }, "user" : { "$oid" : "59c92792a3aa893c9a093063" }, "__v" : 0 }
{ "_id" : { "$oid" : "59c9aeeface6fc44f94faad9" }, "paymentId" : "pay_8hmHEOTvypc9sj", "path" : { "$oid" : "59c95937f0c6ea4182daa129" }, "currency" : "INR", "amount" : 300, "product" : "course", "created" : { "$date" : "2017-09-26T01:35:43.241+0000" }, "discountCode" : "DCE", "user" : { "$oid" : "59c922feed2ec13c17925fbe" }, "__v" : 0 }
{ "_id" : { "$oid" : "59c9af0eb35442450e152187" }, "paymentId" : "pay_8hmHA1iDC0HE5L", "path" : { "$oid" : "59c95937f0c6ea4182daa129" }, "currency" : "INR", "amount" : 300, "product" : "course", "created" : { "$date" : "2017-09-26T01:36:14.342+0000" }, "discountCode" : "DCE", "user" : { "$oid" : "59c9ad5aace6fc44f94faad7" }, "__v" : 0 }
{ "_id" : { "$oid" : "59c9b340a441fa4519726383" }, "paymentId" : "pay_8hmajSJmccz7hK", "path" : { "$oid" : "59c95937f0c6ea4182daa129" }, "currency" : "INR", "amount" : 300, "product" : "course", "created" : { "$date" : "2017-09-26T01:54:08.946+0000" }, "discountCode" : "DCE", "user" : { "$oid" : "59c946019a9364406daa33f3" }, "__v" : 0 }
{ "_id" : { "$oid" : "59c9b431fc2f6a454d5c05ba" }, "paymentId" : "pay_8hmf0WuPwkA8wO", "path" : { "$oid" : "59c95937f0c6ea4182daa129" }, "currency" : "INR", "amount" : 300, "product" : "course", "created" : { "$date" : "2017-09-26T01:58:09.938+0000" }, "discountCode" : "DCE", "user" : { "$oid" : "59c9afd2a441fa4519726381" }, "__v" : 0 }
{ "_id" : { "$oid" : "59c9b71fa9f27f455a630dfb" }, "paymentId" : "pay_8hmrziv04a877W", "path" : { "$oid" : "59c95937f0c6ea4182daa129" }, "currency" : "INR", "amount" : 300, "product" : "course", "created" : { "$date" : "2017-09-26T02:10:39.178+0000" }, "discountCode" : "DCE", "user" : { "$oid" : "59c92fbf90dbfe3dc8455e01" }, "__v" : 0 }
{ "_id" : { "$oid" : "59c9bc438091e645c9268f1d" }, "paymentId" : "pay_8hnEbVK8xiJcxJ", "path" : { "$oid" : "59c95937f0c6ea4182daa129" }, "currency" : "INR", "amount" : 300, "product" : "course", "created" : { "$date" : "2017-09-26T02:32:35.779+0000" }, "discountCode" : "DCE", "user" : { "$oid" : "59c9ba3bf1024945984064ff" }, "__v" : 0 }
{ "_id" : { "$oid" : "59c9c9ada4f18045d5e44d9d" }, "paymentId" : "pay_8hoCUFg02onWhM", "path" : { "$oid" : "59c95937f0c6ea4182daa129" }, "currency" : "INR", "amount" : 300, "product" : "course", "created" : { "$date" : "2017-09-26T03:29:49.951+0000" }, "discountCode" : "DCE", "user" : { "$oid" : "59c9c835a4f18045d5e44d9c" }, "__v" : 0 }
{ "_id" : { "$oid" : "59c9ca6ae4b48a46578866d7" }, "paymentId" : "pay_8hoH29rEQ4EvaV", "path" : { "$oid" : "59c95937f0c6ea4182daa129" }, "currency" : "INR", "amount" : 300, "product" : "course", "created" : { "$date" : "2017-09-26T03:32:58.445+0000" }, "discountCode" : "DCE", "user" : { "$oid" : "59c944139a9364406daa33ed" }, "__v" : 0 }
{ "_id" : { "$oid" : "59c9cb3c511bff4664c036dd" }, "paymentId" : "pay_8hoIXtYVvyMk7g", "path" : { "$oid" : "59c95937f0c6ea4182daa129" }, "currency" : "INR", "amount" : 500, "product" : "course", "created" : { "$date" : "2017-09-26T03:36:28.036+0000" }, "user" : { "$oid" : "59c9c9c9e4b48a46578866d5" }, "__v" : 0 }
{ "_id" : { "$oid" : "59c9cb95954c77469f25b37e" }, "paymentId" : "pay_8hoMLNOpv9E7BL", "path" : { "$oid" : "59c95937f0c6ea4182daa129" }, "currency" : "INR", "amount" : 300, "product" : "course", "created" : { "$date" : "2017-09-26T03:37:57.008+0000" }, "discountCode" : "DCE", "user" : { "$oid" : "59c9ca2ce4b48a46578866d6" }, "__v" : 0 }
{ "_id" : { "$oid" : "59c9cd070a4bab46ab011ef7" }, "paymentId" : "pay_8hoSw4KOE9LNE9", "path" : { "$oid" : "59c95937f0c6ea4182daa129" }, "currency" : "INR", "amount" : 300, "product" : "course", "created" : { "$date" : "2017-09-26T03:44:07.447+0000" }, "discountCode" : "DCE", "user" : { "$oid" : "59c9289bfe3cf93cb8c1ad90" }, "__v" : 0 }
{ "_id" : { "$oid" : "59c9cdd25a36bb46b8a9a3db" }, "paymentId" : "pay_8hoWHV3FL0uKjW", "path" : { "$oid" : "59c95937f0c6ea4182daa129" }, "currency" : "INR", "amount" : 300, "product" : "course", "created" : { "$date" : "2017-09-26T03:47:30.296+0000" }, "discountCode" : "DCE", "user" : { "$oid" : "59c9cc520a4bab46ab011ef5" }, "__v" : 0 }
{ "_id" : { "$oid" : "59c9d1e4fcfe1146f435a0ce" }, "paymentId" : "pay_8hooe8AzX6Sydw", "path" : { "$oid" : "59c95937f0c6ea4182daa129" }, "currency" : "INR", "amount" : 300, "product" : "course", "created" : { "$date" : "2017-09-26T04:04:52.190+0000" }, "discountCode" : "DCE", "user" : { "$oid" : "59c9cf1713247a46c7428420" }, "__v" : 0 }
{ "_id" : { "$oid" : "59c9d2d6fcfe1146f435a0cf" }, "paymentId" : "pay_8hoskSIZ6NNR2E", "path" : { "$oid" : "59c95937f0c6ea4182daa129" }, "currency" : "INR", "amount" : 300, "product" : "course", "created" : { "$date" : "2017-09-26T04:08:54.169+0000" }, "discountCode" : "DCE", "user" : { "$oid" : "59c93c4f42a87a3fa3b562d1" }, "__v" : 0 }
{ "_id" : { "$oid" : "59c9d34a8b9b25471680d23c" }, "paymentId" : "pay_8houttaf4Uh6DG", "path" : { "$oid" : "59c95937f0c6ea4182daa129" }, "currency" : "INR", "amount" : 300, "product" : "course", "created" : { "$date" : "2017-09-26T04:10:50.985+0000" }, "discountCode" : "DCE", "user" : { "$oid" : "59c9cf1713247a46c7428420" }, "__v" : 0 }
{ "_id" : { "$oid" : "59c9d60fe4a8f34723615ff3" }, "paymentId" : "pay_8hp6tos2W1dc9v", "path" : { "$oid" : "59c95937f0c6ea4182daa129" }, "currency" : "INR", "amount" : 300, "product" : "course", "created" : { "$date" : "2017-09-26T04:22:39.100+0000" }, "discountCode" : "DCE", "user" : { "$oid" : "59c9d52ee4a8f34723615fee" }, "__v" : 0 }
{ "_id" : { "$oid" : "59c9d6f83952734733167daa" }, "paymentId" : "pay_8hpB9ajcrbZwKO", "path" : { "$oid" : "59c95937f0c6ea4182daa129" }, "currency" : "INR", "amount" : 300, "product" : "course", "created" : { "$date" : "2017-09-26T04:26:32.536+0000" }, "discountCode" : "DCE", "user" : { "$oid" : "59c9270e7461f43c73b9bc82" }, "__v" : 0 }
{ "_id" : { "$oid" : "59c9d720691dbc475f3c6df4" }, "paymentId" : "pay_8hpCFSsu4XtUuG", "path" : { "$oid" : "59c95937f0c6ea4182daa129" }, "currency" : "INR", "amount" : 300, "product" : "course", "created" : { "$date" : "2017-09-26T04:27:12.385+0000" }, "discountCode" : "DCE", "user" : { "$oid" : "59c9852b90c4ce4238dae5a2" }, "__v" : 0 }
{ "_id" : { "$oid" : "59c9d7410c7e71476de7476f" }, "paymentId" : "pay_8hpCQHOidqV14j", "path" : { "$oid" : "59c95937f0c6ea4182daa129" }, "currency" : "INR", "amount" : 300, "product" : "course", "created" : { "$date" : "2017-09-26T04:27:45.729+0000" }, "discountCode" : "DCE", "user" : { "$oid" : "59c9d4efe4a8f34723615fed" }, "__v" : 0 }
{ "_id" : { "$oid" : "59c9d7e5ec684c47793dca5d" }, "paymentId" : "pay_8hpFUn1iuDBhS1", "path" : { "$oid" : "59c95937f0c6ea4182daa129" }, "currency" : "INR", "amount" : 300, "product" : "course", "created" : { "$date" : "2017-09-26T04:30:29.767+0000" }, "discountCode" : "DCE", "user" : { "$oid" : "59c95264a6343a4142c2cb12" }, "__v" : 0 }
{ "_id" : { "$oid" : "59c9d8490f495047879394f6" }, "paymentId" : "pay_8hpHj0G7Nwu8dI", "path" : { "$oid" : "59c95937f0c6ea4182daa129" }, "currency" : "INR", "amount" : 300, "product" : "course", "created" : { "$date" : "2017-09-26T04:32:09.252+0000" }, "discountCode" : "DCE", "user" : { "$oid" : "59c9d545e4a8f34723615ff0" }, "__v" : 0 }
{ "_id" : { "$oid" : "59c9d907ec23ee47954620f9" }, "paymentId" : "pay_8hpKWIOfwCkJ0j", "path" : { "$oid" : "59c95937f0c6ea4182daa129" }, "currency" : "INR", "amount" : 300, "product" : "course", "created" : { "$date" : "2017-09-26T04:35:19.692+0000" }, "discountCode" : "DCE", "user" : { "$oid" : "59c93f93914bb1400607d969" }, "__v" : 0 }
{ "_id" : { "$oid" : "59c9d921113e1b47a372eedd" }, "paymentId" : "pay_8hpLO4PcEC5g9v", "path" : { "$oid" : "59c95937f0c6ea4182daa129" }, "currency" : "INR", "amount" : 300, "product" : "course", "created" : { "$date" : "2017-09-26T04:35:45.849+0000" }, "discountCode" : "DCE", "user" : { "$oid" : "59c927cbffa4b03ca6e616fe" }, "__v" : 0 }
{ "_id" : { "$oid" : "59c9de7b46c45e47b309d3bf" }, "paymentId" : "pay_8hpiv4uJWxaSmY", "path" : { "$oid" : "59c95937f0c6ea4182daa129" }, "currency" : "INR", "amount" : 300, "product" : "course", "created" : { "$date" : "2017-09-26T04:58:35.225+0000" }, "discountCode" : "DCE", "user" : { "$oid" : "59c93af63821383f7e3b118f" }, "__v" : 0 }
{ "_id" : { "$oid" : "59c9f1daa8523048ededf895" }, "paymentId" : "pay_8hr8Dmq9QwLD9F", "path" : { "$oid" : "59c95937f0c6ea4182daa129" }, "currency" : "INR", "amount" : 300, "product" : "course", "created" : { "$date" : "2017-09-26T06:21:14.357+0000" }, "discountCode" : "DCE", "user" : { "$oid" : "59c93f7f914bb1400607d968" }, "__v" : 0 }
{ "_id" : { "$oid" : "59ca10b7636f62496f4d066a" }, "paymentId" : "pay_8htNerUZqYqETb", "path" : { "$oid" : "59c95937f0c6ea4182daa129" }, "currency" : "INR", "amount" : 300, "product" : "course", "created" : { "$date" : "2017-09-26T08:32:55.389+0000" }, "discountCode" : "DCE", "user" : { "$oid" : "59c92242004ed63bb9a9e3b3" }, "__v" : 0 }
{ "_id" : { "$oid" : "59ca19e02f615a4b05046e0d" }, "paymentId" : "pay_8hu2TWUXeloq3l", "path" : { "$oid" : "59c95937f0c6ea4182daa129" }, "currency" : "INR", "amount" : 300, "product" : "course", "created" : { "$date" : "2017-09-26T09:12:00.123+0000" }, "discountCode" : "DCE", "user" : { "$oid" : "59ca18b62f615a4b05046e0c" }, "__v" : 0 }
{ "_id" : { "$oid" : "59ca20743b7efd4b590e40da" }, "paymentId" : "pay_8huWSXXidKlbxr", "path" : { "$oid" : "59c95937f0c6ea4182daa129" }, "currency" : "INR", "amount" : 300, "product" : "course", "created" : { "$date" : "2017-09-26T09:40:04.426+0000" }, "discountCode" : "DCE", "user" : { "$oid" : "59c92c7ec942263d489b9521" }, "__v" : 0 }
{ "_id" : { "$oid" : "59ca258e4084904b9008f0c5" }, "paymentId" : "pay_8hutMQxOEoTdjg", "path" : { "$oid" : "59c95937f0c6ea4182daa129" }, "currency" : "INR", "amount" : 300, "product" : "course", "created" : { "$date" : "2017-09-26T10:01:50.246+0000" }, "discountCode" : "DCE", "user" : { "$oid" : "59ca24f54084904b9008f0c4" }, "__v" : 0 }
{ "_id" : { "$oid" : "59ca2b5cb2b17e4d986ccfaa" }, "paymentId" : "pay_8hvJnfdSIV8rCf", "path" : { "$oid" : "59c95937f0c6ea4182daa129" }, "currency" : "INR", "amount" : 300, "product" : "course", "created" : { "$date" : "2017-09-26T10:26:36.617+0000" }, "discountCode" : "DCE", "user" : { "$oid" : "59c92600b817b43c496a3e78" }, "__v" : 0 }
{ "_id" : { "$oid" : "59ca2d7f3b9d7053e8b1d942" }, "paymentId" : "pay_8hvSc31v38yvYH", "path" : { "$oid" : "59c95937f0c6ea4182daa129" }, "currency" : "INR", "amount" : 300, "product" : "course", "created" : { "$date" : "2017-09-26T10:35:43.671+0000" }, "discountCode" : "DCE", "user" : { "$oid" : "59ca2c4a3b9d7053e8b1d941" }, "__v" : 0 }
{ "_id" : { "$oid" : "59ca344281830654139090e4" }, "paymentId" : "pay_8hvxDPWcmJkbGG", "path" : { "$oid" : "59c95937f0c6ea4182daa129" }, "currency" : "INR", "amount" : 300, "product" : "course", "created" : { "$date" : "2017-09-26T11:04:34.084+0000" }, "discountCode" : "DCE", "user" : { "$oid" : "59c9518b97789b41141ba994" }, "__v" : 0 }
{ "_id" : { "$oid" : "59ca347b35cd2b544b597814" }, "paymentId" : "pay_8hvyjTGLUANniw", "path" : { "$oid" : "59c95937f0c6ea4182daa129" }, "currency" : "INR", "amount" : 300, "product" : "course", "created" : { "$date" : "2017-09-26T11:05:31.168+0000" }, "discountCode" : "DCE", "user" : { "$oid" : "59c922b8004ed63bb9a9e3b9" }, "__v" : 0 }
{ "_id" : { "$oid" : "59ca3571ea1fab5455202dd4" }, "paymentId" : "pay_8hw2gNE0maznZe", "path" : { "$oid" : "59c95937f0c6ea4182daa129" }, "currency" : "INR", "amount" : 300, "product" : "course", "created" : { "$date" : "2017-09-26T11:09:37.560+0000" }, "discountCode" : "DCE", "user" : { "$oid" : "59c941991c92fb40405a7334" }, "__v" : 0 }
{ "_id" : { "$oid" : "59ca386715d6d254712a1eeb" }, "paymentId" : "pay_8hwG44WFC03Kf1", "path" : { "$oid" : "59c95937f0c6ea4182daa129" }, "currency" : "INR", "amount" : 300, "product" : "course", "created" : { "$date" : "2017-09-26T11:22:15.717+0000" }, "discountCode" : "DCE", "user" : { "$oid" : "59c925a5b817b43c496a3e77" }, "__v" : 0 }
{ "_id" : { "$oid" : "59ca3abcac92c954844e3c1e" }, "paymentId" : "pay_8hwOxCUR3QoAJH", "path" : { "$oid" : "59c95937f0c6ea4182daa129" }, "currency" : "INR", "amount" : 300, "product" : "course", "created" : { "$date" : "2017-09-26T11:32:12.404+0000" }, "discountCode" : "DCE", "user" : { "$oid" : "59ca38abac92c954844e3c1b" }, "__v" : 0 }
{ "_id" : { "$oid" : "59ca3bf9fe63ad54af75e3dc" }, "paymentId" : "pay_8hwWMO6kFGrerJ", "path" : { "$oid" : "59c95937f0c6ea4182daa129" }, "currency" : "INR", "amount" : 300, "product" : "course", "created" : { "$date" : "2017-09-26T11:37:29.692+0000" }, "discountCode" : "DCE", "user" : { "$oid" : "59c92680b817b43c496a3e80" }, "__v" : 0 }
{ "_id" : { "$oid" : "59ca3f593606ca54bcec7a18" }, "paymentId" : "pay_8hwlOeXCYQA2tC", "path" : { "$oid" : "59c95937f0c6ea4182daa129" }, "currency" : "INR", "amount" : 300, "product" : "course", "created" : { "$date" : "2017-09-26T11:51:53.385+0000" }, "discountCode" : "DCE", "user" : { "$oid" : "59ca22194084904b9008f0c3" }, "__v" : 0 }
{ "_id" : { "$oid" : "59ca41774cea7b54e92c2d7e" }, "paymentId" : "pay_8hwvFCPT8dk1LR", "path" : { "$oid" : "59c95937f0c6ea4182daa129" }, "currency" : "INR", "amount" : 300, "product" : "course", "created" : { "$date" : "2017-09-26T12:00:55.210+0000" }, "discountCode" : "DCE", "user" : { "$oid" : "59c922c7ed2ec13c17925fb9" }, "__v" : 0 }
{ "_id" : { "$oid" : "59ca42a01d392854f6383b29" }, "paymentId" : "pay_8hx02OWr1PWOMv", "path" : { "$oid" : "59c95937f0c6ea4182daa129" }, "currency" : "INR", "amount" : 300, "product" : "course", "created" : { "$date" : "2017-09-26T12:05:52.745+0000" }, "discountCode" : "DCE", "user" : { "$oid" : "59c92fba90dbfe3dc8455e00" }, "__v" : 0 }
{ "_id" : { "$oid" : "59ca441cf25dd8550ed1c61d" }, "paymentId" : "pay_8hx74JTW865DyX", "path" : { "$oid" : "59c95937f0c6ea4182daa129" }, "currency" : "INR", "amount" : 300, "product" : "course", "created" : { "$date" : "2017-09-26T12:12:12.681+0000" }, "discountCode" : "DCE", "user" : { "$oid" : "59c922fced2ec13c17925fbd" }, "__v" : 0 }
{ "_id" : { "$oid" : "59ca455c73ccca551c909b6d" }, "paymentId" : "pay_8hxAc1DXHyS9GA", "path" : { "$oid" : "59c95937f0c6ea4182daa129" }, "currency" : "INR", "amount" : 300, "product" : "course", "created" : { "$date" : "2017-09-26T12:17:32.699+0000" }, "discountCode" : "DCE", "user" : { "$oid" : "59c92476b86e1d3c32896c14" }, "__v" : 0 }
{ "_id" : { "$oid" : "59ca46584f511a5529781c9c" }, "paymentId" : "pay_8hxH9ZESX2VlxX", "path" : { "$oid" : "59c95937f0c6ea4182daa129" }, "currency" : "INR", "amount" : 300, "product" : "course", "created" : { "$date" : "2017-09-26T12:21:44.639+0000" }, "discountCode" : "DCE", "user" : { "$oid" : "59c9271a7461f43c73b9bc83" }, "__v" : 0 }
{ "_id" : { "$oid" : "59ca4771e3e81255567e048a" }, "paymentId" : "pay_8hxKuzFJzTEOjR", "path" : { "$oid" : "59c95937f0c6ea4182daa129" }, "currency" : "INR", "amount" : 300, "product" : "course", "created" : { "$date" : "2017-09-26T12:26:25.823+0000" }, "discountCode" : "DCE", "user" : { "$oid" : "59ca46494f511a5529781c9b" }, "__v" : 0 }
{ "_id" : { "$oid" : "59ca484bb4034255626fc2c0" }, "paymentId" : "pay_8hxPjFMy6o6tsO", "path" : { "$oid" : "59c95937f0c6ea4182daa129" }, "currency" : "INR", "amount" : 300, "product" : "course", "created" : { "$date" : "2017-09-26T12:30:03.659+0000" }, "discountCode" : "DCE", "user" : { "$oid" : "59c92c0ec942263d489b951d" }, "__v" : 0 }
{ "_id" : { "$oid" : "59ca49851417a3556f18009d" }, "paymentId" : "pay_8hxVU5eqxLym2X", "path" : { "$oid" : "59c95937f0c6ea4182daa129" }, "currency" : "INR", "amount" : 300, "product" : "course", "created" : { "$date" : "2017-09-26T12:35:17.467+0000" }, "discountCode" : "DCE", "user" : { "$oid" : "59ca4849b4034255626fc2bf" }, "__v" : 0 }
{ "_id" : { "$oid" : "59ca49985cb547557d55ed65" }, "paymentId" : "pay_8hxVjZllajZ74s", "path" : { "$oid" : "59c95937f0c6ea4182daa129" }, "currency" : "INR", "amount" : 300, "product" : "course", "created" : { "$date" : "2017-09-26T12:35:36.524+0000" }, "discountCode" : "DCE", "user" : { "$oid" : "59c9ddba46c45e47b309d3bd" }, "__v" : 0 }
{ "_id" : { "$oid" : "59ca4baa9ce31c5587ae6642" }, "paymentId" : "pay_8hxffMRTx3NdSR", "path" : { "$oid" : "59c95937f0c6ea4182daa129" }, "currency" : "INR", "amount" : 300, "product" : "course", "created" : { "$date" : "2017-09-26T12:44:26.001+0000" }, "discountCode" : "DCE", "user" : { "$oid" : "59c92aa81eb2183cf722b43c" }, "__v" : 0 }
{ "_id" : { "$oid" : "59ca4dcc42fdb155ba200442" }, "paymentId" : "pay_8hxpNyw5q3kkdW", "path" : { "$oid" : "59c95937f0c6ea4182daa129" }, "currency" : "INR", "amount" : 300, "product" : "course", "created" : { "$date" : "2017-09-26T12:53:32.747+0000" }, "discountCode" : "DCE", "user" : { "$oid" : "59c92c26c942263d489b951e" }, "__v" : 0 }
{ "_id" : { "$oid" : "59ca4e5b05385355c9cee4d9" }, "paymentId" : "pay_8hxrT90arrONRs", "path" : { "$oid" : "59c95937f0c6ea4182daa129" }, "currency" : "INR", "amount" : 300, "product" : "course", "created" : { "$date" : "2017-09-26T12:55:55.903+0000" }, "discountCode" : "DCE", "user" : { "$oid" : "59c9361e9b06333ede4eeb7d" }, "__v" : 0 }
{ "_id" : { "$oid" : "59ca5007b2f9e855d80e5d6d" }, "paymentId" : "pay_8hxzL4fo3pcGYP", "path" : { "$oid" : "59c95937f0c6ea4182daa129" }, "currency" : "INR", "amount" : 300, "product" : "course", "created" : { "$date" : "2017-09-26T13:03:03.864+0000" }, "discountCode" : "DCE", "user" : { "$oid" : "59ca4eeab2f9e855d80e5d6c" }, "__v" : 0 }
{ "_id" : { "$oid" : "59ca51dfa1e08055f2db0373" }, "paymentId" : "pay_8hy7UXghEe1jka", "path" : { "$oid" : "59c95937f0c6ea4182daa129" }, "currency" : "INR", "amount" : 300, "product" : "course", "created" : { "$date" : "2017-09-26T13:10:55.814+0000" }, "discountCode" : "DCE", "user" : { "$oid" : "59c93be042a87a3fa3b562cf" }, "__v" : 0 }
{ "_id" : { "$oid" : "59ca5633c63bec55ff609f96" }, "paymentId" : "pay_8hyQEExqY9V05Q", "path" : { "$oid" : "59c95937f0c6ea4182daa129" }, "currency" : "INR", "amount" : 300, "product" : "course", "created" : { "$date" : "2017-09-26T13:29:23.054+0000" }, "discountCode" : "DCE", "user" : { "$oid" : "59ca52e7c63bec55ff609f91" }, "__v" : 0 }
{ "_id" : { "$oid" : "59ca569ef5f75056307fc87c" }, "paymentId" : "pay_8hyT75QYhsyjD0", "path" : { "$oid" : "59c95937f0c6ea4182daa129" }, "currency" : "INR", "amount" : 300, "product" : "course", "created" : { "$date" : "2017-09-26T13:31:10.332+0000" }, "discountCode" : "DCE", "user" : { "$oid" : "59c92ad64bc5043d07a46a18" }, "__v" : 0 }
{ "_id" : { "$oid" : "59ca58599e296b563d412a6b" }, "paymentId" : "pay_8hyZJslTdbRoSa", "path" : { "$oid" : "59c95937f0c6ea4182daa129" }, "currency" : "INR", "amount" : 300, "product" : "course", "created" : { "$date" : "2017-09-26T13:38:33.118+0000" }, "discountCode" : "DCE", "user" : { "$oid" : "59c9247cb86e1d3c32896c15" }, "__v" : 0 }
{ "_id" : { "$oid" : "59ca59b809966e5668330cd3" }, "paymentId" : "pay_8hyfjtGb4obpBb", "path" : { "$oid" : "59c95937f0c6ea4182daa129" }, "currency" : "INR", "amount" : 300, "product" : "course", "created" : { "$date" : "2017-09-26T13:44:24.643+0000" }, "discountCode" : "DCE", "user" : { "$oid" : "59c92a4c44b2353cea3d0acb" }, "__v" : 0 }
{ "_id" : { "$oid" : "59ca59c7fd0c5b567533d905" }, "paymentId" : "pay_8hygO5vuHQE1j5", "path" : { "$oid" : "59c95937f0c6ea4182daa129" }, "currency" : "INR", "amount" : 300, "product" : "course", "created" : { "$date" : "2017-09-26T13:44:39.207+0000" }, "discountCode" : "DCE", "user" : { "$oid" : "59c9c692a4f18045d5e44d9a" }, "__v" : 0 }
{ "_id" : { "$oid" : "59ca5aa2603d5a56812b5f12" }, "paymentId" : "pay_8hyjeRfTitpPW6", "path" : { "$oid" : "59c95937f0c6ea4182daa129" }, "currency" : "INR", "amount" : 300, "product" : "course", "created" : { "$date" : "2017-09-26T13:48:18.359+0000" }, "discountCode" : "DCE", "user" : { "$oid" : "59ca38e9ac92c954844e3c1c" }, "__v" : 0 }
{ "_id" : { "$oid" : "59ca5c15550ecf569c6f85d3" }, "paymentId" : "pay_8hyr5vI33RaFNZ", "path" : { "$oid" : "59c95937f0c6ea4182daa129" }, "currency" : "INR", "amount" : 300, "product" : "course", "created" : { "$date" : "2017-09-26T13:54:29.245+0000" }, "discountCode" : "DCE", "user" : { "$oid" : "59c9314e43fa733dded594d9" }, "__v" : 0 }
{ "_id" : { "$oid" : "59ca5c8433774956aada648e" }, "paymentId" : "pay_8hysabrtGeiY7I", "path" : { "$oid" : "59c95937f0c6ea4182daa129" }, "currency" : "INR", "amount" : 300, "product" : "course", "created" : { "$date" : "2017-09-26T13:56:20.691+0000" }, "discountCode" : "DCE", "user" : { "$oid" : "59c922d3ed2ec13c17925fbb" }, "__v" : 0 }
{ "_id" : { "$oid" : "59ca5ce07e9ee056b7d17cba" }, "paymentId" : "pay_8hyuTzOlTxdAbQ", "path" : { "$oid" : "59c95937f0c6ea4182daa129" }, "currency" : "INR", "amount" : 300, "product" : "course", "created" : { "$date" : "2017-09-26T13:57:52.042+0000" }, "discountCode" : "DCE", "user" : { "$oid" : "59c9373452787c3efc70353d" }, "__v" : 0 }
{ "_id" : { "$oid" : "59ca5daa5c286d56c7b0feba" }, "paymentId" : "pay_8hyybOvTst9Bek", "path" : { "$oid" : "59c95937f0c6ea4182daa129" }, "currency" : "INR", "amount" : 300, "product" : "course", "created" : { "$date" : "2017-09-26T14:01:14.925+0000" }, "discountCode" : "DCE", "user" : { "$oid" : "59c9a44f543b2144166bb978" }, "__v" : 0 }
{ "_id" : { "$oid" : "59ca5edb34b4e356e4087310" }, "paymentId" : "pay_8hz3heOhbZaeIk", "path" : { "$oid" : "59c95937f0c6ea4182daa129" }, "currency" : "INR", "amount" : 300, "product" : "course", "created" : { "$date" : "2017-09-26T14:06:19.450+0000" }, "discountCode" : "DCE", "user" : { "$oid" : "59c93179ac6aca3e0854ad64" }, "__v" : 0 }
{ "_id" : { "$oid" : "59ca5f0b5aa8e856f5fea339" }, "paymentId" : "pay_8hz4IxXs3rZYRq", "path" : { "$oid" : "59c95937f0c6ea4182daa129" }, "currency" : "INR", "amount" : 300, "product" : "course", "created" : { "$date" : "2017-09-26T14:07:07.871+0000" }, "discountCode" : "DCE", "user" : { "$oid" : "59c930e990dbfe3dc8455e08" }, "__v" : 0 }
{ "_id" : { "$oid" : "59ca61b9fb918f571dd25d88" }, "paymentId" : "pay_8hzGz0TCBwPPTM", "path" : { "$oid" : "59c95937f0c6ea4182daa129" }, "currency" : "INR", "amount" : 300, "product" : "course", "created" : { "$date" : "2017-09-26T14:18:33.812+0000" }, "discountCode" : "DCE", "user" : { "$oid" : "59c9bbd5f102494598406500" }, "__v" : 0 }
{ "_id" : { "$oid" : "59ca61bfd65f43572c3383e9" }, "paymentId" : "pay_8hzGkYikdlIVQ6", "path" : { "$oid" : "59c95937f0c6ea4182daa129" }, "currency" : "INR", "amount" : 300, "product" : "course", "created" : { "$date" : "2017-09-26T14:18:39.419+0000" }, "discountCode" : "DCE", "user" : { "$oid" : "59ca6138fb918f571dd25d87" }, "__v" : 0 }
{ "_id" : { "$oid" : "59ca625417cd235738813ab2" }, "paymentId" : "pay_8hzIrNFmvDEyPH", "path" : { "$oid" : "59c95937f0c6ea4182daa129" }, "currency" : "INR", "amount" : 300, "product" : "course", "created" : { "$date" : "2017-09-26T14:21:08.423+0000" }, "discountCode" : "DCE", "user" : { "$oid" : "59c93df4e329e73ff7fae3ff" }, "__v" : 0 }
{ "_id" : { "$oid" : "59ca63315f29f257473954f5" }, "paymentId" : "pay_8hzNl2rbazHJ5f", "path" : { "$oid" : "59c95937f0c6ea4182daa129" }, "currency" : "INR", "amount" : 300, "product" : "course", "created" : { "$date" : "2017-09-26T14:24:49.070+0000" }, "discountCode" : "DCE", "user" : { "$oid" : "59c92744ef41803c8098b3a9" }, "__v" : 0 }
{ "_id" : { "$oid" : "59ca63681eded257543389b5" }, "paymentId" : "pay_8hzOWouwXdDoJi", "path" : { "$oid" : "59c95937f0c6ea4182daa129" }, "currency" : "INR", "amount" : 300, "product" : "course", "created" : { "$date" : "2017-09-26T14:25:44.044+0000" }, "discountCode" : "DCE", "user" : { "$oid" : "59c93a573821383f7e3b118a" }, "__v" : 0 }
{ "_id" : { "$oid" : "59ca637001d668576175aed4" }, "paymentId" : "pay_8hzONKUyVpwW8Z", "path" : { "$oid" : "59c95937f0c6ea4182daa129" }, "currency" : "INR", "amount" : 300, "product" : "course", "created" : { "$date" : "2017-09-26T14:25:52.154+0000" }, "discountCode" : "DCE", "user" : { "$oid" : "59c92272004ed63bb9a9e3b7" }, "__v" : 0 }
{ "_id" : { "$oid" : "59ca6517465d96576cd85da5" }, "paymentId" : "pay_8hzVprv5ddM4bD", "path" : { "$oid" : "59c95937f0c6ea4182daa129" }, "currency" : "INR", "amount" : 300, "product" : "course", "created" : { "$date" : "2017-09-26T14:32:55.741+0000" }, "discountCode" : "DCE", "user" : { "$oid" : "59ca62a05f29f257473954f4" }, "__v" : 0 }
{ "_id" : { "$oid" : "59ca65f48f7053577c6112ce" }, "paymentId" : "pay_8hzZMBt9oT9Hcs", "path" : { "$oid" : "59c95937f0c6ea4182daa129" }, "currency" : "INR", "amount" : 300, "product" : "course", "created" : { "$date" : "2017-09-26T14:36:36.923+0000" }, "discountCode" : "DCE", "user" : { "$oid" : "59ca611ffb918f571dd25d86" }, "__v" : 0 }
{ "_id" : { "$oid" : "59ca664d9a89e157a707e2f4" }, "paymentId" : "pay_8hzZcBbqP7TZho", "path" : { "$oid" : "59c95937f0c6ea4182daa129" }, "currency" : "INR", "amount" : 300, "product" : "course", "created" : { "$date" : "2017-09-26T14:38:05.069+0000" }, "discountCode" : "DCE", "user" : { "$oid" : "59c923a33446883c24c648d3" }, "__v" : 0 }
{ "_id" : { "$oid" : "59ca68141a12f657b6557b02" }, "paymentId" : "pay_8hziqlcJDxCGu1", "path" : { "$oid" : "59c95937f0c6ea4182daa129" }, "currency" : "INR", "amount" : 300, "product" : "course", "created" : { "$date" : "2017-09-26T14:45:40.277+0000" }, "discountCode" : "DCE", "user" : { "$oid" : "59c92872fe3cf93cb8c1ad8f" }, "__v" : 0 }
{ "_id" : { "$oid" : "59ca68f4c7219057c5aa94ff" }, "paymentId" : "pay_8hzme5DDvstCL6", "path" : { "$oid" : "59c95937f0c6ea4182daa129" }, "currency" : "INR", "amount" : 300, "product" : "course", "created" : { "$date" : "2017-09-26T14:49:24.499+0000" }, "discountCode" : "DCE", "user" : { "$oid" : "59ca678f1a12f657b6557b01" }, "__v" : 0 }
{ "_id" : { "$oid" : "59ca6a438fe76a57d21e4ef4" }, "paymentId" : "pay_8hzrbl0qNeTwEG", "path" : { "$oid" : "59c95937f0c6ea4182daa129" }, "currency" : "INR", "amount" : 300, "product" : "course", "created" : { "$date" : "2017-09-26T14:54:59.261+0000" }, "discountCode" : "DCE", "user" : { "$oid" : "59c925a2b817b43c496a3e76" }, "__v" : 0 }
{ "_id" : { "$oid" : "59ca6b1bdbcbc757df17722a" }, "paymentId" : "pay_8hzwZpDijbEvCe", "path" : { "$oid" : "59c95937f0c6ea4182daa129" }, "currency" : "INR", "amount" : 300, "product" : "course", "created" : { "$date" : "2017-09-26T14:58:35.635+0000" }, "discountCode" : "DCE", "user" : { "$oid" : "59c932d8ec4a913e2ecf1cd8" }, "__v" : 0 }
{ "_id" : { "$oid" : "59ca6c8b33b98357ef12cb75" }, "paymentId" : "pay_8i03My7OkzWyJV", "path" : { "$oid" : "59c95937f0c6ea4182daa129" }, "currency" : "INR", "amount" : 300, "product" : "course", "created" : { "$date" : "2017-09-26T15:04:43.602+0000" }, "discountCode" : "DCE", "user" : { "$oid" : "59ca4b1e9ce31c5587ae6641" }, "__v" : 0 }
{ "_id" : { "$oid" : "59ca6cb96ade1358239f9656" }, "paymentId" : "pay_8i03iXJjWqPdOO", "path" : { "$oid" : "59c95937f0c6ea4182daa129" }, "currency" : "INR", "amount" : 300, "product" : "course", "created" : { "$date" : "2017-09-26T15:05:29.182+0000" }, "discountCode" : "DCE", "user" : { "$oid" : "59c936299b06333ede4eeb7e" }, "__v" : 0 }
{ "_id" : { "$oid" : "59ca6dd41c8f80582e84ae29" }, "paymentId" : "pay_8i09dA6kFnOiCQ", "path" : { "$oid" : "59c95937f0c6ea4182daa129" }, "currency" : "INR", "amount" : 300, "product" : "course", "created" : { "$date" : "2017-09-26T15:10:12.758+0000" }, "discountCode" : "DCE", "user" : { "$oid" : "59c9e46eab9d1b47fcf0c98c" }, "__v" : 0 }
{ "_id" : { "$oid" : "59ca6dfca72df2583b47173d" }, "paymentId" : "pay_8i07nv03PSQfq4", "path" : { "$oid" : "59c95937f0c6ea4182daa129" }, "currency" : "INR", "amount" : 300, "product" : "course", "created" : { "$date" : "2017-09-26T15:10:52.331+0000" }, "discountCode" : "DCE", "user" : { "$oid" : "59ca657c8f7053577c6112cc" }, "__v" : 0 }
{ "_id" : { "$oid" : "59ca6e01aa89615846edf0ff" }, "paymentId" : "pay_8i0APPDV36WsIY", "path" : { "$oid" : "59c95937f0c6ea4182daa129" }, "currency" : "INR", "amount" : 300, "product" : "course", "created" : { "$date" : "2017-09-26T15:10:57.823+0000" }, "discountCode" : "DCE", "user" : { "$oid" : "59ca6ca46ade1358239f9655" }, "__v" : 0 }
{ "_id" : { "$oid" : "59ca6fce08436e5850f18f61" }, "paymentId" : "pay_8i0IUHFkLf44a1", "path" : { "$oid" : "59c95937f0c6ea4182daa129" }, "currency" : "INR", "amount" : 300, "product" : "course", "created" : { "$date" : "2017-09-26T15:18:38.448+0000" }, "discountCode" : "DCE", "user" : { "$oid" : "59c9309390dbfe3dc8455e06" }, "__v" : 0 }
{ "_id" : { "$oid" : "59ca7155dd076c585de68a99" }, "paymentId" : "pay_8i0PP2QEogMykU", "path" : { "$oid" : "59c95937f0c6ea4182daa129" }, "currency" : "INR", "amount" : 300, "product" : "course", "created" : { "$date" : "2017-09-26T15:25:09.336+0000" }, "discountCode" : "DCE", "user" : { "$oid" : "59ca70bedd076c585de68a98" }, "__v" : 0 }
{ "_id" : { "$oid" : "59ca72bb2033c0586e07b5b0" }, "paymentId" : "pay_8i0VODGjO6Vdou", "path" : { "$oid" : "59c95937f0c6ea4182daa129" }, "currency" : "INR", "amount" : 300, "product" : "course", "created" : { "$date" : "2017-09-26T15:31:03.204+0000" }, "discountCode" : "DCE", "user" : { "$oid" : "59c922ceed2ec13c17925fba" }, "__v" : 0 }
{ "_id" : { "$oid" : "59ca74a6543c69587da4af6a" }, "paymentId" : "pay_8i0df1LNQMedAJ", "path" : { "$oid" : "59c95937f0c6ea4182daa129" }, "currency" : "INR", "amount" : 300, "product" : "course", "created" : { "$date" : "2017-09-26T15:39:18.085+0000" }, "discountCode" : "DCE", "user" : { "$oid" : "59c92aec4bc5043d07a46a1a" }, "__v" : 0 }
{ "_id" : { "$oid" : "59ca755d9ea74c58a7df58de" }, "paymentId" : "pay_8i0cJVwT2YPZ3x", "path" : { "$oid" : "59c95937f0c6ea4182daa129" }, "currency" : "INR", "amount" : 300, "product" : "course", "created" : { "$date" : "2017-09-26T15:42:21.762+0000" }, "discountCode" : "DCE", "user" : { "$oid" : "59ca5485c63bec55ff609f94" }, "__v" : 0 }
{ "_id" : { "$oid" : "59ca75c6d0034d58b65c7c09" }, "paymentId" : "pay_8i0jKHdwdCmYfk", "path" : { "$oid" : "59c95937f0c6ea4182daa129" }, "currency" : "INR", "amount" : 300, "product" : "course", "created" : { "$date" : "2017-09-26T15:44:06.066+0000" }, "discountCode" : "DCE", "user" : { "$oid" : "59c9cee113247a46c742841e" }, "__v" : 0 }
{ "_id" : { "$oid" : "59ca760a2322c958c46dcb05" }, "paymentId" : "pay_8i0jJ5YHgZcylD", "path" : { "$oid" : "59c95937f0c6ea4182daa129" }, "currency" : "INR", "amount" : 300, "product" : "course", "created" : { "$date" : "2017-09-26T15:45:14.087+0000" }, "discountCode" : "DCE", "user" : { "$oid" : "59c92aa61eb2183cf722b43b" }, "__v" : 0 }
{ "_id" : { "$oid" : "59ca762a62fcbd58d1a1d8e0" }, "paymentId" : "pay_8i0kTIugSq6hkj", "path" : { "$oid" : "59c95937f0c6ea4182daa129" }, "currency" : "INR", "amount" : 300, "product" : "course", "created" : { "$date" : "2017-09-26T15:45:46.694+0000" }, "discountCode" : "DCE", "user" : { "$oid" : "59ca737a543c69587da4af67" }, "__v" : 0 }
{ "_id" : { "$oid" : "59ca78c4022f7758dbd9ac52" }, "paymentId" : "pay_8i0vflXjxm6y2u", "path" : { "$oid" : "59c95937f0c6ea4182daa129" }, "currency" : "INR", "amount" : 300, "product" : "course", "created" : { "$date" : "2017-09-26T15:56:52.662+0000" }, "discountCode" : "DCE", "user" : { "$oid" : "59c9de2946c45e47b309d3be" }, "__v" : 0 }
{ "_id" : { "$oid" : "59ca792ab6bb6f590ae27652" }, "paymentId" : "pay_8i0ypIsi3Ljde5", "path" : { "$oid" : "59c95937f0c6ea4182daa129" }, "currency" : "INR", "amount" : 300, "product" : "course", "created" : { "$date" : "2017-09-26T15:58:34.013+0000" }, "discountCode" : "DCE", "user" : { "$oid" : "59c92792a3aa893c9a093064" }, "__v" : 0 }
{ "_id" : { "$oid" : "59ca7950592aa15919d374f1" }, "paymentId" : "pay_8i0z7lzF9GKT1E", "path" : { "$oid" : "59c95937f0c6ea4182daa129" }, "currency" : "INR", "amount" : 300, "product" : "course", "created" : { "$date" : "2017-09-26T15:59:12.431+0000" }, "discountCode" : "DCE", "user" : { "$oid" : "59c92a7f1eb2183cf722b438" }, "__v" : 0 }
{ "_id" : { "$oid" : "59ca7999c20d3759260016de" }, "paymentId" : "pay_8i10g2ytssoqDi", "path" : { "$oid" : "59c95937f0c6ea4182daa129" }, "currency" : "INR", "amount" : 300, "product" : "course", "created" : { "$date" : "2017-09-26T16:00:25.170+0000" }, "discountCode" : "DCE", "user" : { "$oid" : "59c9f9b6636f62496f4d065f" }, "__v" : 0 }
{ "_id" : { "$oid" : "59ca79f70e66b6593314256d" }, "paymentId" : "pay_8i10ZHsmhMhJJ5", "path" : { "$oid" : "59c95937f0c6ea4182daa129" }, "currency" : "INR", "amount" : 300, "product" : "course", "created" : { "$date" : "2017-09-26T16:01:59.508+0000" }, "discountCode" : "DCE", "user" : { "$oid" : "59c934f54572273eaf35ea31" }, "__v" : 0 }
{ "_id" : { "$oid" : "59ca7ba9703111594bc64162" }, "paymentId" : "pay_8i18zYwJU9SmBa", "path" : { "$oid" : "59c95937f0c6ea4182daa129" }, "currency" : "INR", "amount" : 300, "product" : "course", "created" : { "$date" : "2017-09-26T16:09:13.203+0000" }, "discountCode" : "DCE", "user" : { "$oid" : "59ca683dc7219057c5aa94fd" }, "__v" : 0 }
{ "_id" : { "$oid" : "59ca7da114fc0c595b2bdb0a" }, "paymentId" : "pay_8i1IpWh4DnhNiC", "path" : { "$oid" : "59c95937f0c6ea4182daa129" }, "currency" : "INR", "amount" : 300, "product" : "course", "created" : { "$date" : "2017-09-26T16:17:37.813+0000" }, "discountCode" : "DCE", "user" : { "$oid" : "59c929d54dda203cd13caca8" }, "__v" : 0 }
{ "_id" : { "$oid" : "59ca7e7b70f6d9596ae82833" }, "paymentId" : "pay_8i1MCsAO0HmkfS", "path" : { "$oid" : "59c95937f0c6ea4182daa129" }, "currency" : "INR", "amount" : 300, "product" : "course", "created" : { "$date" : "2017-09-26T16:21:15.408+0000" }, "discountCode" : "DCE", "user" : { "$oid" : "59c93994d40d273f5ee0f254" }, "__v" : 0 }
{ "_id" : { "$oid" : "59ca806bb572e7597b3a8fee" }, "paymentId" : "pay_8i1V26iA5o7Sq4", "path" : { "$oid" : "59c95937f0c6ea4182daa129" }, "currency" : "INR", "amount" : 300, "product" : "course", "created" : { "$date" : "2017-09-26T16:29:31.283+0000" }, "discountCode" : "DCE", "user" : { "$oid" : "59c93383d439443e62f87375" }, "__v" : 0 }
{ "_id" : { "$oid" : "59ca80c20c3cec59a4d51feb" }, "paymentId" : "pay_8i1X2wlnDvApYX", "path" : { "$oid" : "59c95937f0c6ea4182daa129" }, "currency" : "INR", "amount" : 300, "product" : "course", "created" : { "$date" : "2017-09-26T16:30:58.940+0000" }, "discountCode" : "DCE", "user" : { "$oid" : "59ca16872f615a4b05046e0a" }, "__v" : 0 }
{ "_id" : { "$oid" : "59ca80f48a426c59afb52bfb" }, "paymentId" : "pay_8i1Xv7FyzjjQFX", "path" : { "$oid" : "59c95937f0c6ea4182daa129" }, "currency" : "INR", "amount" : 300, "product" : "course", "created" : { "$date" : "2017-09-26T16:31:48.713+0000" }, "discountCode" : "DCE", "user" : { "$oid" : "59ca530cc63bec55ff609f92" }, "__v" : 0 }
{ "_id" : { "$oid" : "59ca810e92180f59ba946471" }, "paymentId" : "pay_8i1XYjuWz0IFCg", "path" : { "$oid" : "59c95937f0c6ea4182daa129" }, "currency" : "INR", "amount" : 300, "product" : "course", "created" : { "$date" : "2017-09-26T16:32:14.313+0000" }, "discountCode" : "DCE", "user" : { "$oid" : "59ca5fbcfb918f571dd25d80" }, "__v" : 0 }
{ "_id" : { "$oid" : "59ca8400c96d7959d380b251" }, "paymentId" : "pay_8i1kShlgEIpJ27", "path" : { "$oid" : "59c95937f0c6ea4182daa129" }, "currency" : "INR", "amount" : 300, "product" : "course", "created" : { "$date" : "2017-09-26T16:44:48.396+0000" }, "discountCode" : "DCE", "user" : { "$oid" : "59ca82a2379f7459c4933223" }, "__v" : 0 }
{ "_id" : { "$oid" : "59ca840dac023f59e38029e9" }, "paymentId" : "pay_8i1lEZLLW1SKWk", "path" : { "$oid" : "59c95937f0c6ea4182daa129" }, "currency" : "INR", "amount" : 300, "product" : "course", "created" : { "$date" : "2017-09-26T16:45:01.000+0000" }, "discountCode" : "DCE", "user" : { "$oid" : "59c9365b9b06333ede4eeb7f" }, "__v" : 0 }
{ "_id" : { "$oid" : "59ca84385320a059eda370fb" }, "paymentId" : "pay_8i1m9Ij00Rn71I", "path" : { "$oid" : "59c95937f0c6ea4182daa129" }, "currency" : "INR", "amount" : 500, "product" : "course", "created" : { "$date" : "2017-09-26T16:45:44.558+0000" }, "user" : { "$oid" : "59c9a0ef543b2144166bb973" }, "__v" : 0 }
{ "_id" : { "$oid" : "59ca845da19fd259f8ef5c14" }, "paymentId" : "pay_8i1n7gWu5YtlWH", "path" : { "$oid" : "59c95937f0c6ea4182daa129" }, "currency" : "INR", "amount" : 300, "product" : "course", "created" : { "$date" : "2017-09-26T16:46:20.462+0000" }, "discountCode" : "DCE", "user" : { "$oid" : "59ca3eab3606ca54bcec7a17" }, "__v" : 0 }
{ "_id" : { "$oid" : "59ca86433778845a05aed35b" }, "paymentId" : "pay_8i1vOKdtlFzlHr", "path" : { "$oid" : "59c95937f0c6ea4182daa129" }, "currency" : "INR", "amount" : 300, "product" : "course", "created" : { "$date" : "2017-09-26T16:54:27.616+0000" }, "discountCode" : "DCE", "user" : { "$oid" : "59ca83abc96d7959d380b24f" }, "__v" : 0 }
{ "_id" : { "$oid" : "59ca8688a5fc3e5a343dd6cd" }, "paymentId" : "pay_8i1vlOxK5bBzTH", "path" : { "$oid" : "59c95937f0c6ea4182daa129" }, "currency" : "INR", "amount" : 300, "product" : "course", "created" : { "$date" : "2017-09-26T16:55:36.066+0000" }, "discountCode" : "DCE", "user" : { "$oid" : "59c94016914bb1400607d96b" }, "__v" : 0 }
{ "_id" : { "$oid" : "59ca874271a4d85a41c056f7" }, "paymentId" : "pay_8i1yBHzKagjMt6", "path" : { "$oid" : "59c95937f0c6ea4182daa129" }, "currency" : "INR", "amount" : 300, "product" : "course", "created" : { "$date" : "2017-09-26T16:58:42.138+0000" }, "discountCode" : "DCE", "user" : { "$oid" : "59c9d6363952734733167da9" }, "__v" : 0 }
{ "_id" : { "$oid" : "59ca88831d3a455a507c9776" }, "paymentId" : "pay_8i252hcMzhPlF7", "path" : { "$oid" : "59c95937f0c6ea4182daa129" }, "currency" : "INR", "amount" : 300, "product" : "course", "created" : { "$date" : "2017-09-26T17:04:03.382+0000" }, "discountCode" : "DCE", "user" : { "$oid" : "59c93b182d67033f90bd6d59" }, "__v" : 0 }
{ "_id" : { "$oid" : "59ca894b8b7dd15a73517fc8" }, "paymentId" : "pay_8i25X3f3OiWmGy", "path" : { "$oid" : "59c95937f0c6ea4182daa129" }, "currency" : "INR", "amount" : 300, "product" : "course", "created" : { "$date" : "2017-09-26T17:07:23.241+0000" }, "discountCode" : "DCE", "user" : { "$oid" : "59c944a39a9364406daa33ef" }, "__v" : 0 }
{ "_id" : { "$oid" : "59ca8980f76b885a8095f7a8" }, "paymentId" : "pay_8i29UtJXuidgXP", "path" : { "$oid" : "59c95937f0c6ea4182daa129" }, "currency" : "INR", "amount" : 300, "product" : "course", "created" : { "$date" : "2017-09-26T17:08:16.243+0000" }, "discountCode" : "DCE", "user" : { "$oid" : "59ca887b1d3a455a507c9775" }, "__v" : 0 }
{ "_id" : { "$oid" : "59ca8a126866835a8fcbca45" }, "paymentId" : "pay_8i2CXjbApwPkrp", "path" : { "$oid" : "59c95937f0c6ea4182daa129" }, "currency" : "INR", "amount" : 300, "product" : "course", "created" : { "$date" : "2017-09-26T17:10:42.007+0000" }, "discountCode" : "DCE", "user" : { "$oid" : "59ca88a3f4bf4d5a687499d1" }, "__v" : 0 }
{ "_id" : { "$oid" : "59ca8a4e1bf6b15a9d7e88b8" }, "paymentId" : "pay_8i2Dh0ILcWugpo", "path" : { "$oid" : "59c95937f0c6ea4182daa129" }, "currency" : "INR", "amount" : 300, "product" : "course", "created" : { "$date" : "2017-09-26T17:11:42.529+0000" }, "discountCode" : "DCE", "user" : { "$oid" : "59c9384c2cc5ab3f25311c49" }, "__v" : 0 }
{ "_id" : { "$oid" : "59ca8a551296015aa726de45" }, "paymentId" : "pay_8i2DiA7DnbG3NF", "path" : { "$oid" : "59c95937f0c6ea4182daa129" }, "currency" : "INR", "amount" : 300, "product" : "course", "created" : { "$date" : "2017-09-26T17:11:49.087+0000" }, "discountCode" : "DCE", "user" : { "$oid" : "59c9dadd46c45e47b309d3ba" }, "__v" : 0 }
{ "_id" : { "$oid" : "59ca8ae61bd3735ab1c2870d" }, "paymentId" : "pay_8i2FQvfEUKP5yD", "path" : { "$oid" : "59c95937f0c6ea4182daa129" }, "currency" : "INR", "amount" : 500, "product" : "course", "created" : { "$date" : "2017-09-26T17:14:14.714+0000" }, "user" : { "$oid" : "59ca878e1d3a455a507c9774" }, "__v" : 0 }
{ "_id" : { "$oid" : "59ca8be5844f285abf8425be" }, "paymentId" : "pay_8i2K7Quu09ZV8i", "path" : { "$oid" : "59c95937f0c6ea4182daa129" }, "currency" : "INR", "amount" : 300, "product" : "course", "created" : { "$date" : "2017-09-26T17:18:29.212+0000" }, "discountCode" : "DCE", "user" : { "$oid" : "59ca899e6866835a8fcbca44" }, "__v" : 0 }
{ "_id" : { "$oid" : "59ca8c43723f7c5ae867d689" }, "paymentId" : "pay_8i2MEpdSVYl4j6", "path" : { "$oid" : "59c95937f0c6ea4182daa129" }, "currency" : "INR", "amount" : 300, "product" : "course", "created" : { "$date" : "2017-09-26T17:20:03.512+0000" }, "discountCode" : "DCE", "user" : { "$oid" : "59c9303f90dbfe3dc8455e02" }, "__v" : 0 }
{ "_id" : { "$oid" : "59ca8dde17417f5af5ea0b8a" }, "paymentId" : "pay_8i2Sn5EXtY7gcy", "path" : { "$oid" : "59c95937f0c6ea4182daa129" }, "currency" : "INR", "amount" : 300, "product" : "course", "created" : { "$date" : "2017-09-26T17:26:54.356+0000" }, "discountCode" : "DCE", "user" : { "$oid" : "59c93c2142a87a3fa3b562d0" }, "__v" : 0 }
{ "_id" : { "$oid" : "59ca8e5271b13d5b06451089" }, "paymentId" : "pay_8i2WA0UBYNYOdz", "path" : { "$oid" : "59c95937f0c6ea4182daa129" }, "currency" : "INR", "amount" : 300, "product" : "course", "created" : { "$date" : "2017-09-26T17:28:50.555+0000" }, "discountCode" : "DCE", "user" : { "$oid" : "59ca6d631c8f80582e84ae27" }, "__v" : 0 }
{ "_id" : { "$oid" : "59ca8e7b3516075b13e37db1" }, "paymentId" : "pay_8i2VysNJk3jZiy", "path" : { "$oid" : "59c95937f0c6ea4182daa129" }, "currency" : "INR", "amount" : 300, "product" : "course", "created" : { "$date" : "2017-09-26T17:29:31.248+0000" }, "discountCode" : "DCE", "user" : { "$oid" : "59c9379fd3050a3f0b33e30b" }, "__v" : 0 }
{ "_id" : { "$oid" : "59ca90b4224d665b1ee09783" }, "paymentId" : "pay_8i2fkmqVSmi30t", "path" : { "$oid" : "59c95937f0c6ea4182daa129" }, "currency" : "INR", "amount" : 300, "product" : "course", "created" : { "$date" : "2017-09-26T17:39:00.923+0000" }, "discountCode" : "DCE", "user" : { "$oid" : "59ca65cd8f7053577c6112cd" }, "__v" : 0 }
{ "_id" : { "$oid" : "59ca90b5224d665b1ee09784" }, "paymentId" : "pay_8i2dvpFxyA4hlO", "path" : { "$oid" : "59c95937f0c6ea4182daa129" }, "currency" : "INR", "amount" : 300, "product" : "course", "created" : { "$date" : "2017-09-26T17:39:01.044+0000" }, "discountCode" : "DCE", "user" : { "$oid" : "59c9d468e4a8f34723615feb" }, "__v" : 0 }
{ "_id" : { "$oid" : "59ca924db91d0e5b2c788947" }, "paymentId" : "pay_8i2nFXvyfK0EBv", "path" : { "$oid" : "59c95937f0c6ea4182daa129" }, "currency" : "INR", "amount" : 300, "product" : "course", "created" : { "$date" : "2017-09-26T17:45:49.851+0000" }, "discountCode" : "DCE", "user" : { "$oid" : "59ca70bcdd076c585de68a97" }, "__v" : 0 }
{ "_id" : { "$oid" : "59ca97ef4523795b637d9bee" }, "paymentId" : "pay_8i3CgBqsxXQQsv", "path" : { "$oid" : "59c95937f0c6ea4182daa129" }, "currency" : "INR", "amount" : 300, "product" : "course", "created" : { "$date" : "2017-09-26T18:09:51.391+0000" }, "discountCode" : "DCE", "user" : { "$oid" : "59ca948c4523795b637d9bec" }, "__v" : 0 }
{ "_id" : { "$oid" : "59ca9c61e9d3645b7f6c4bb7" }, "paymentId" : "pay_8i3WSXrUEnjIDk", "path" : { "$oid" : "59c95937f0c6ea4182daa129" }, "currency" : "INR", "amount" : 300, "product" : "course", "created" : { "$date" : "2017-09-26T18:28:49.923+0000" }, "discountCode" : "DCE", "user" : { "$oid" : "59ca96cf4523795b637d9bed" }, "__v" : 0 }
{ "_id" : { "$oid" : "59ca9dc7827bec5bb2c89964" }, "paymentId" : "pay_8i3d5z8tya8L3g", "path" : { "$oid" : "598c7fe1b6fa6f560a03383a" }, "currency" : "INR", "amount" : 50, "product" : "course", "created" : { "$date" : "2017-09-26T18:34:47.812+0000" }, "user" : { "$oid" : "59ca937025f94f5b3a9fa688" }, "__v" : 0 }
{ "_id" : { "$oid" : "59caa1ccaecb7d5bc1c11811" }, "paymentId" : "pay_8i3vnVZmiTsBuF", "path" : { "$oid" : "59c95937f0c6ea4182daa129" }, "currency" : "INR", "amount" : 300, "product" : "course", "created" : { "$date" : "2017-09-26T18:51:56.788+0000" }, "discountCode" : "DCE", "user" : { "$oid" : "59caa025aecb7d5bc1c11810" }, "__v" : 0 }
{ "_id" : { "$oid" : "59caf4902e8cdc5bed4e42c5" }, "paymentId" : "pay_8i9wXT2tGeP1Gn", "path" : { "$oid" : "59c95937f0c6ea4182daa129" }, "currency" : "INR", "amount" : 300, "product" : "course", "created" : { "$date" : "2017-09-27T00:45:04.651+0000" }, "discountCode" : "DCE", "user" : { "$oid" : "59ca7330543c69587da4af66" }, "__v" : 0 }
{ "_id" : { "$oid" : "59cafb6fd199b15e522b211f" }, "paymentId" : "pay_8iARY5xRJuI99A", "path" : { "$oid" : "59c95937f0c6ea4182daa129" }, "currency" : "INR", "amount" : 300, "product" : "course", "created" : { "$date" : "2017-09-27T01:14:23.862+0000" }, "discountCode" : "DCE", "user" : { "$oid" : "59c9286efe3cf93cb8c1ad8e" }, "__v" : 0 }
{ "_id" : { "$oid" : "59cb0d949bdf6a5f2ef9ded7" }, "paymentId" : "pay_8iBl7rLlnzc4bX", "path" : { "$oid" : "59c95937f0c6ea4182daa129" }, "currency" : "INR", "amount" : 300, "product" : "course", "created" : { "$date" : "2017-09-27T02:31:48.691+0000" }, "discountCode" : "DCE", "user" : { "$oid" : "59cb0ccc9bdf6a5f2ef9ded5" }, "__v" : 0 }
{ "_id" : { "$oid" : "59cb1467ebbd8f5f57368bd8" }, "paymentId" : "pay_8iCFkH1e9KPaTp", "path" : { "$oid" : "59c95937f0c6ea4182daa129" }, "currency" : "INR", "amount" : 300, "product" : "course", "created" : { "$date" : "2017-09-27T03:00:55.033+0000" }, "discountCode" : "DCE", "user" : { "$oid" : "59c928a2fe3cf93cb8c1ad92" }, "__v" : 0 }
{ "_id" : { "$oid" : "59cb196f0015f35f80e220fe" }, "paymentId" : "pay_8iCcHo7JiZqBl7", "path" : { "$oid" : "59c95937f0c6ea4182daa129" }, "currency" : "INR", "amount" : 300, "product" : "course", "created" : { "$date" : "2017-09-27T03:22:23.302+0000" }, "discountCode" : "DCE", "user" : { "$oid" : "59ca4c5c42fdb155ba200440" }, "__v" : 0 }
{ "_id" : { "$oid" : "59cb21926d487a604fd5c924" }, "paymentId" : "pay_8iDDI4tO4H2Yl9", "path" : { "$oid" : "59c95937f0c6ea4182daa129" }, "currency" : "INR", "amount" : 300, "product" : "course", "created" : { "$date" : "2017-09-27T03:57:06.653+0000" }, "discountCode" : "DCE", "user" : { "$oid" : "59c929c94dda203cd13caca6" }, "__v" : 0 }
{ "_id" : { "$oid" : "59ccfacde899ae708a0654cd" }, "paymentId" : "pay_8ilbgiYJtid9mu", "path" : { "$oid" : "598c7fe1b6fa6f560a03383a" }, "currency" : "INR", "amount" : 50, "product" : "course", "created" : { "$date" : "2017-09-28T13:36:13.793+0000" }, "user" : { "$oid" : "59ccf74ce899ae708a0654ca" }, "__v" : 0 }
{ "_id" : { "$oid" : "59cd2a1e5525077405e591c3" }, "paymentId" : "pay_8ip2SdKsxj24Zv", "path" : { "$oid" : "59c95937f0c6ea4182daa129" }, "currency" : "INR", "amount" : 300, "product" : "course", "created" : { "$date" : "2017-09-28T16:58:06.077+0000" }, "discountCode" : "DCE", "user" : { "$oid" : "59ca0e8c636f62496f4d0669" }, "__v" : 0 }
{ "_id" : { "$oid" : "59e058b00124524c7586d2fe" }, "paymentId" : "pay_8oa1vVBxaNZnCC", "path" : { "$oid" : "59e0534b0124524c7586d2fb" }, "currency" : "INR", "amount" : 1, "product" : "course", "created" : { "$date" : "2017-10-13T06:09:52.720+0000" }, "user" : { "$oid" : "594283f2f5c4000f4260d120" }, "__v" : 0 }
{ "_id" : { "$oid" : "59e07213bf08fc67aa4a55ec" }, "paymentId" : "pay_8obsQIJIPvN6x6", "path" : { "$oid" : "59e0594cbf08fc67aa4a55e9" }, "currency" : "INR", "amount" : 10, "product" : "course", "created" : { "$date" : "2017-10-13T07:58:11.561+0000" }, "user" : { "$oid" : "594283f2f5c4000f4260d120" }, "__v" : 0 }
{ "_id" : { "$oid" : "59e076dd7507816861442204" }, "paymentId" : "pay_8ocE0z6viIjN2H", "path" : { "$oid" : "59e074af7507816861442201" }, "currency" : "INR", "amount" : 10, "product" : "course", "created" : { "$date" : "2017-10-13T08:18:37.489+0000" }, "user" : { "$oid" : "594283f2f5c4000f4260d120" }, "__v" : 0 }
{ "_id" : { "$oid" : "59e20b7711122968995d5c6a" }, "paymentId" : "pay_8p5dVWjIg5YPy5", "path" : { "$oid" : "59e0828111122968995d5c63" }, "currency" : "INR", "amount" : 1, "product" : "course", "created" : { "$date" : "2017-10-14T13:04:55.564+0000" }, "user" : { "$oid" : "594283f2f5c4000f4260d120" }, "__v" : 0 }
{ "_id" : { "$oid" : "59e21b59bc06ee02499a7922" }, "paymentId" : "pay_8p6n6FUOnbkGGW", "path" : { "$oid" : "59e21840357a5d01a373a948" }, "currency" : "INR", "amount" : 10, "product" : "course", "created" : { "$date" : "2017-10-14T14:12:41.689+0000" }, "user" : { "$oid" : "594283f2f5c4000f4260d120" }, "__v" : 0 }
{ "_id" : { "$oid" : "59e231e1fd1a5e036e1a435f" }, "paymentId" : "pay_8p8QgjruBMfp9J", "path" : { "$oid" : "59e22e8b42515f0269eb1061" }, "currency" : "INR", "amount" : 10, "product" : "course", "created" : { "$date" : "2017-10-14T15:48:49.890+0000" }, "user" : { "$oid" : "594283f2f5c4000f4260d120" }, "__v" : 0 }
{ "_id" : { "$oid" : "59e2372973721303b6f55ac6" }, "paymentId" : "pay_8p8oUsRG790grR", "path" : { "$oid" : "59e22e8b42515f0269eb1061" }, "currency" : "INR", "amount" : 10, "product" : "course", "created" : { "$date" : "2017-10-14T16:11:21.147+0000" }, "user" : { "$oid" : "595f0a438fe486073a34dd49" }, "__v" : 0 }
{ "_id" : { "$oid" : "59e2550316c7d105825bc77d" }, "paymentId" : "pay_8pAycOB2ujnJo3", "path" : { "$oid" : "59e239b373721303b6f55ac8" }, "currency" : "INR", "amount" : 2, "product" : "course", "created" : { "$date" : "2017-10-14T18:18:43.107+0000" }, "user" : { "$oid" : "594283f2f5c4000f4260d120" }, "__v" : 0 }
{ "_id" : { "$oid" : "5a005e44659eb335e7e4f5af" }, "paymentId" : "pay_8yBvrKQZR8LJPO", "path" : { "$oid" : "59c95937f0c6ea4182daa129" }, "currency" : "INR", "amount" : 300, "product" : "course", "created" : { "$date" : "2017-11-06T13:06:12.832+0000" }, "discountCode" : "DCE", "user" : { "$oid" : "59c9263eb817b43c496a3e7c" }, "__v" : 0 }
{ "_id" : { "$oid" : "5a005e6c659eb335e7e4f5b1" }, "paymentId" : "pay_8yBwSQMi93Og1t", "path" : { "$oid" : "59c95937f0c6ea4182daa129" }, "currency" : "INR", "amount" : 300, "product" : "course", "created" : { "$date" : "2017-11-06T13:06:52.526+0000" }, "discountCode" : "DCE", "user" : { "$oid" : "5a005c3c659eb335e7e4f5ac" }, "__v" : 0 }
{ "_id" : { "$oid" : "5a006314659eb335e7e4f5b4" }, "paymentId" : "pay_8yCHp4GailyxKD", "path" : { "$oid" : "59c95937f0c6ea4182daa129" }, "currency" : "INR", "amount" : 300, "product" : "course", "created" : { "$date" : "2017-11-06T13:26:44.014+0000" }, "discountCode" : "DCE", "user" : { "$oid" : "59c9470f2d893d40af1f65a8" }, "__v" : 0 }
{ "_id" : { "$oid" : "5a006cbe659eb335e7e4f5b7" }, "paymentId" : "pay_8yCzQl6gDRd4hw", "path" : { "$oid" : "59c95937f0c6ea4182daa129" }, "currency" : "INR", "amount" : 300, "product" : "course", "created" : { "$date" : "2017-11-06T14:07:58.851+0000" }, "discountCode" : "DCE", "user" : { "$oid" : "59c920d4004ed63bb9a9e3b0" }, "__v" : 0 }
{ "_id" : { "$oid" : "5a00716b659eb335e7e4f5be" }, "paymentId" : "pay_8yDKblYAZqnTzG", "path" : { "$oid" : "59c95937f0c6ea4182daa129" }, "currency" : "INR", "amount" : 300, "product" : "course", "created" : { "$date" : "2017-11-06T14:27:55.163+0000" }, "discountCode" : "DCE", "user" : { "$oid" : "59c92674b817b43c496a3e7d" }, "__v" : 0 }
{ "_id" : { "$oid" : "5a008ff12f73527aa91657ca" }, "paymentId" : "pay_8yFXxkBggEgV5M", "path" : { "$oid" : "59c95937f0c6ea4182daa129" }, "currency" : "INR", "amount" : 300, "product" : "course", "created" : { "$date" : "2017-11-06T16:38:09.208+0000" }, "discountCode" : "DCE", "user" : { "$oid" : "5a008d822f73527aa91657c9" }, "__v" : 0 }
{ "_id" : { "$oid" : "5a00981e2f73527aa91657cc" }, "paymentId" : "pay_8yG8vo6407CfRd", "path" : { "$oid" : "59c95937f0c6ea4182daa129" }, "currency" : "INR", "amount" : 300, "product" : "course", "created" : { "$date" : "2017-11-06T17:13:02.132+0000" }, "discountCode" : "DCE", "user" : { "$oid" : "5a0072e72f73527aa91657c5" }, "__v" : 0 }
{ "_id" : { "$oid" : "5a0190f908449c089125b10e" }, "paymentId" : "pay_8yYDfMD4bgbElT", "path" : { "$oid" : "59c95937f0c6ea4182daa129" }, "currency" : "INR", "amount" : 300, "product" : "course", "created" : { "$date" : "2017-11-07T10:54:49.306+0000" }, "discountCode" : "DCE", "user" : { "$oid" : "5a005bee659eb335e7e4f5aa" }, "__v" : 0 }
{ "_id" : { "$oid" : "5a01acac08449c089125b114" }, "paymentId" : "pay_8yaCI32ErDdnvz", "path" : { "$oid" : "59c95937f0c6ea4182daa129" }, "currency" : "INR", "amount" : 300, "product" : "course", "created" : { "$date" : "2017-11-07T12:53:00.417+0000" }, "discountCode" : "DCE", "user" : { "$oid" : "5a01a8dd08449c089125b112" }, "__v" : 0 }
{ "_id" : { "$oid" : "5a01c5d536ea910afb9c26a5" }, "paymentId" : "pay_8yc2u80tLl4dz5", "path" : { "$oid" : "59c95937f0c6ea4182daa129" }, "currency" : "INR", "amount" : 300, "product" : "course", "created" : { "$date" : "2017-11-07T14:40:21.065+0000" }, "discountCode" : "DCE", "user" : { "$oid" : "5a017fe108449c089125b10c" }, "__v" : 0 }
{ "_id" : { "$oid" : "5a01ee4836ea910afb9c26af" }, "paymentId" : "pay_8yf0iL8i5nDBbO", "path" : { "$oid" : "59c95937f0c6ea4182daa129" }, "currency" : "INR", "amount" : 300, "product" : "course", "created" : { "$date" : "2017-11-07T17:32:56.235+0000" }, "discountCode" : "DCE", "user" : { "$oid" : "5a01e8f836ea910afb9c26ac" }, "__v" : 0 }
