[{
  "id": "0fb84d0f0c6074f0",
  "name": "Introductory Probability and Statistics for Business ",
  "coverPhoto": "1.jpg"
}, {
  "id": "0fb84d13e96090d2",
  "name": "Introductory Physics",
  "coverPhoto": "2.jpg"
}, {
  "id": "0fb86a0f6960c32d",
  "name": "Nonlinear Dynamical Systems",
  "coverPhoto": "3.jpg"
}, {
  "id": "0fb86d30af60c357",
  "name": "Geotechnical Measurements & Explorations",
  "coverPhoto": "4.jpg"
}, {
  "id": "0fb86e642160c366",
  "name": "Natural Language Processing",
  "coverPhoto": "5.jpg"
},{
  "id": "0fb86ed989609152",
  "name": "Manufacturing Processes",
  "coverPhoto": "6.jpg"
},{
  "id": "0fb86ed90660c38c",
  "name": "Broadband Networks",
  "coverPhoto": "7.jpg"
},{
  "id": "0fb86e9447607562",
  "name": "Six Sigma",
  "coverPhoto": "8.jpg"
},{
  "id": "0fb84ca77a609088",
  "name": "The Early Middle Ages, 284-1000",
  "coverPhoto": "9.jpg"
},{
  "id": "0fb84c7d6160748c",
  "name": "Game Theory",
  "coverPhoto": "10.jpg"
},{
  "id": "0fb86e670c609132",
  "name": "Game Theory and Economics",
  "coverPhoto": "10.jpg"
},{
  "id": "0fb86ed9da60c38d",
  "name": "Digital Voice and Picture Communication",
  "coverPhoto": "11.jpg"
},{
  "id": "0fb84c817660c2af",
  "name": "Lectures on Human Capital ",
  "coverPhoto": "12.jpg"
}, {
  "id": "0fb84ca32860749c",
  "name": "The Elements of Economic Analysis",
  "coverPhoto": "13.jpg"
},{
  "id": "0fb84cb3406074aa",
  "name": "Introduction to New Testament History and Literature",
  "coverPhoto": "14.jpg"
},{
  "id": "0fb86e7ccf609139",
  "name": "Advanced Matrix Theory and Linear Algebra for Engineers",
  "coverPhoto": "15.gif"
},{
  "id": "0fb84eb7d360c312",
  "name": "Microeconomic Theory with Application to Natural Resources",
  "coverPhoto": "16.jpg"
},{
  "id": "0fb84d0f0c6074f0",
  "name": "Introductory Probability and Statistics for Business ",
  "coverPhoto": "17.jpg"
},{
  "id": "0fb84c9c4b60c2b3",
  "name": "Introduction to Pitch Systems in Tonal Music",
  "coverPhoto": "18.jpg"
},{
  "id": "0fb84cfcf260c2f6",
  "name": "Linear Algebra",
  "coverPhoto": "19.png"
},{
  "id": "0fb84cae0a6074a1",
  "name": "The Nature of Mind",
  "coverPhoto": "20.jpg"
}, {
  "id": "0fb86ecde760c384",
  "name": "Strength of Materials",
  "coverPhoto": "21.png"
}, {
  "id": "0fb86ee534609163",
  "name": "Basic Electronics - Prof T.S.Natarajan",
  "coverPhoto": "22.jpg"
},{
  "id": "0fb84cda8d6074ca",
  "name": "Programming Languages and Compilers by Ras Bodik ",
  "coverPhoto": "23.png"
},{
  "id": "0fb84cc8c660c2d0",
  "name": "Building a Business",
  "coverPhoto": "24.jpg"
}, {
  "id": "0fb84cd9246074c8",
  "name": "Discrete Stochastic Processes",
  "coverPhoto": "25.png"
},{
  "id": "0fb84d06246090c8",
  "name": "Calculus Revisited: Complex Variables, Differential Equations, and Linear Algebra (1972)",
  "coverPhoto": "26.png"
}, {
  "id": "0fb86e721b607558",
  "name": "Applied Multivariate Analysis",
  "coverPhoto": "27.gif"
},{
  "id": "0fb86edc6260c38f",
  "name": "Energy Resources and Technology",
  "coverPhoto": "28.png"
},{
  "id": "0fb84cb881609092",
  "name": "Origins: From the Big Bang to the Emergence of Humans",
  "coverPhoto": "29.jpg"
}]